Part_2/Section_6/Section_6.sim/sim_1/behav/xsim/dump.vcd
$date
   Wed Aug 23 17:03:32 2023
$end
$version
  2022.1
$end
$timescale
  1ps
$end
$scope module tb $end
$var reg 32 ! env $end
$scope module vif $end
$var reg 1 " presetn $end
$var reg 1 # pclk $end
$var reg 1 $ psel $end
$var reg 1 % penable $end
$var reg 1 & pwrite $end
$var reg 32 ' paddr [31:0] $end
$var reg 32 ( pwdata [31:0] $end
$var reg 32 ) prdata [31:0] $end
$var reg 1 * pready $end
$var reg 1 + pslverr $end
$upscope $end
$scope module dut $end
$var wire 1 , presetn $end
$var wire 1 - pclk $end
$var wire 1 . psel $end
$var wire 1 / penable $end
$var wire 1 0 pwrite $end
$var wire 32 1 paddr [31:0] $end
$var wire 32 2 pwdata [31:0] $end
$var reg 32 3 prdata [31:0] $end
$var reg 1 4 pready $end
$var reg 1 5 pslverr $end
$var reg 32 6 state $end
$var reg 32 7 next_state $end
$scope begin Block24_5 $end
$var reg 32 8 i [31:0] $end
$upscope $end
$upscope $end
$upscope $end
$enddefinitions $end
#0
$dumpvars
b100001101110010000000000111000 !
0"
0#
0$
0%
0&
b0 '
b0 (
bx )
x*
x+
0,
0-
0.
0/
00
b0 1
b0 2
bx 3
x4
x5
b0 6
b0 7
b0 8
$end
#10000
1#
b0 )
0*
0+
1-
b0 3
04
05
b0 6
b100000 8
#20000
0#
0-
#30000
1#
1-
b0 3
04
05
b0 6
b100000 8
#40000
0#
0-
#50000
1#
1-
b0 3
04
05
b0 6
b100000 8
#60000
0#
0-
#70000
1#
1-
b0 3
04
05
b0 6
b100000 8
#80000
0#
0-
#90000
1"
1#
1,
1-
b0 3
04
05
b0 6
b100000 8
#100000
0#
0-
#110000
1#
1-
b0 3
04
05
b1 6
#120000
0#
0-
#130000
1#
1-
b1 6
#140000
0#
0-
#150000
1#
1-
b1 6
#160000
0#
0-
#170000
1#
1-
b1 6
#180000
0#
0-
#190000
1#
1-
b1 6
#200000
0#
0-
#210000
1#
1$
0%
1&
b111000 '
b111 (
1-
1.
10
b111000 1
b111 2
b1 6
#220000
0#
0-
#230000
1#
1%
1-
1/
04
b10 6
#240000
0#
0-
#250000
1#
1*
1+
1-
14
15
b11 6
#260000
0#
0-
#270000
1#
0$
0%
0&
0*
0+
1-
0.
0/
00
04
05
b1 6
#280000
0#
0-
#290000
1#
1-
b1 6
#300000
0#
0-
#310000
1#
1$
0%
1&
b100 '
b111 (
1-
1.
10
b100 1
b1 6
#320000
0#
0-
#330000
1#
1%
1*
1-
1/
14
b10 6
#340000
0#
0-
#350000
1#
1-
05
b11 6
#360000
0#
0-
#370000
1#
0$
0%
0&
0*
1-
0.
0/
00
04
05
b1 6
#380000
0#
0-
#390000
1#
1-
b1 6
#400000
0#
0-
#410000
1#
1$
0%
0&
b11 '
b100 (
1-
1.
b11 1
b100 2
b1 6
#420000
0#
0-
#430000
1#
1%
1*
1-
1/
14
b10 6
#440000
0#
0-
#450000
1#
1-
b0 3
14
05
b11 6
#460000
0#
0-
#470000
1#
0$
0%
0&
0*
1-
0.
0/
04
05
b1 6
#480000
0#
0-
#490000
1#
1-
b1 6
#500000
0#
0-
#510000
1#
1$
0%
0&
b111000 '
b100 (
1-
1.
b111000 1
b1 6
#520000
0#
0-
#530000
1#
1%
1-
1/
04
b10 6
#540000
0#
0-
#550000
1#
bx )
1*
1+
1-
bx 3
14
15
b11 6
#560000
0#
0-
#570000
1#
0$
0%
0&
0*
0+
1-
0.
0/
04
05
b1 6
#580000
0#
0-
#590000
1#
1-
b1 6
#600000
0#
0-
#610000
1#
1$
0%
0&
b10 '
b11 (
1-
1.
b10 1
b11 2
b1 6
#620000
0#
0-
#630000
1#
1%
1*
1-
1/
14
b10 6
#640000
0#
0-
#650000
1#
b0 )
1-
b0 3
14
05
b11 6
#660000
0#
0-
#670000
1#
0$
0%
0&
0*
1-
0.
0/
04
05
b1 6
#680000
0#
0-
#690000
1#
1-
b1 6
#700000
0#
0-
#710000
1#
1$
0%
0&
b100 '
b1001 (
1-
1.
b100 1
b1001 2
b1 6
#720000
0#
0-
#730000
1#
1%
1*
1-
1/
14
b10 6
#740000
0#
0-
#750000
1#
b111 )
1-
b111 3
14
05
b11 6
#760000
0#
0-
#770000
1#
0$
0%
0&
0*
1-
0.
0/
04
05
b1 6
#780000
0#
0-
#790000
1#
1-
b1 6
#800000
0#
0-
#810000
1#
1$
0%
1&
b100 '
b111 (
1-
1.
10
b111 2
b1 6
#820000
0#
0-
#830000
1#
1%
1*
1-
1/
14
b10 6
#840000
0#
0-
#850000
1#
1-
05
b11 6
#860000
0#
0-
#870000
1#
0$
0%
0&
0*
1-
0.
0/
00
04
05
b1 6
#880000
0#
0-
#890000
1#
1-
b1 6
#900000
0#
0-
#910000
1#
1$
0%
0&
b11 '
b110 (
1-
1.
b11 1
b110 2
b1 6
#920000
0#
0-
#930000
1#
1%
1*
1-
1/
14
b10 6
#940000
0#
0-
#950000
1#
b0 )
1-
b0 3
14
05
b11 6
#960000
0#
0-
#970000
1#
0$
0%
0&
0*
1-
0.
0/
04
05
b1 6
#980000
0#
0-
#990000
1#
1-
b1 6
#1000000
0#
0-
#1010000
1#
1$
0%
0&
b100 '
b10 (
1-
1.
b100 1
b10 2
b1 6
#1020000
0#
0-
#1030000
1#
1%
1*
1-
1/
14
b10 6
#1040000
0#
0-
#1050000
1#
b111 )
1-
b111 3
14
05
b11 6
#1060000
0#
0-
#1070000
1#
0$
0%
0&
0*
1-
0.
0/
04
05
b1 6
#1080000
0#
0-
#1090000
1#
1-
b1 6
#1100000
0#
0-
#1110000
1#
1$
0%
1&
b10 '
b101 (
1-
1.
10
b10 1
b101 2
b1 6
#1120000
0#
0-
#1130000
1#
1%
1*
1-
1/
14
b10 6
#1140000
0#
0-
#1150000
1#
1-
05
b11 6
#1160000
0#
0-
#1170000
1#
0$
0%
0&
0*
1-
0.
0/
00
04
05
b1 6
#1180000
0#
0-
#1190000
1#
1-
b1 6
#1200000
0#
0-
#1210000
1#
1$
0%
1&
b11 '
b100 (
1-
1.
10
b11 1
b100 2
b1 6
#1220000
0#
0-
#1230000
1#
1%
1*
1-
1/
14
b10 6
#1240000
0#
0-
#1250000
1#
1-
05
b11 6
#1260000
0#
0-
#1270000
1#
0$
0%
0&
0*
1-
0.
0/
00
04
05
b1 6
#1280000
0#
0-
#1290000
1#
1-
b1 6
#1300000
0#
0-
#1310000
1#
1$
0%
0&
b11 '
b11 (
1-
1.
b11 2
b1 6
#1320000
0#
0-
#1330000
1#
1%
1*
1-
1/
14
b10 6
#1340000
0#
0-
#1350000
1#
b100 )
1-
b100 3
14
05
b11 6
#1360000
0#
0-
#1370000
1#
0$
0%
0&
0*
1-
0.
0/
04
05
b1 6
#1380000
0#
0-
#1390000
1#
1-
b1 6
#1400000
0#
0-
#1410000
1#
1$
0%
0&
b11 '
b10 (
1-
1.
b10 2
b1 6
#1420000
0#
0-
#1430000
1#
1%
1*
1-
1/
14
b10 6
#1440000
0#
0-
#1450000
1#
1-
b100 3
14
05
b11 6
#1460000
0#
0-
#1470000
1#
0$
0%
0&
0*
1-
0.
0/
04
05
b1 6
#1480000
0#
0-
#1490000
1#
1-
b1 6
#1500000
0#
0-
#1510000
1#
1$
0%
0&
b100 '
b110 (
1-
1.
b100 1
b110 2
b1 6
#1520000
0#
0-
#1530000
1#
1%
1*
1-
1/
14
b10 6
#1540000
0#
0-
#1550000
1#
b111 )
1-
b111 3
14
05
b11 6
#1560000
0#
0-
#1570000
1#
0$
0%
0&
0*
1-
0.
0/
04
05
b1 6
#1580000
0#
0-
#1590000
1#
1-
b1 6
#1600000
0#
0-
#1610000
1#
1$
0%
0&
b10 '
b100 (
1-
1.
b10 1
b100 2
b1 6
#1620000
0#
0-
#1630000
1#
1%
1*
1-
1/
14
b10 6
#1640000
0#
0-
#1650000
1#
b101 )
1-
b101 3
14
05
b11 6
#1660000
0#
0-
#1670000
1#
0$
0%
0&
0*
1-
0.
0/
04
05
b1 6
#1680000
0#
0-
#1690000
1#
1-
b1 6
#1700000
0#
0-
#1710000
1#
1$
0%
0&
b10 '
b1000 (
1-
1.
b1000 2
b1 6
#1720000
0#
0-
#1730000
1#
1%
1*
1-
1/
14
b10 6
#1740000
0#
0-
#1750000
1#
1-
b101 3
14
05
b11 6
#1760000
0#
0-
#1770000
1#
0$
0%
0&
0*
1-
0.
0/
04
05
b1 6
#1780000
0#
0-
#1790000
1#
1-
b1 6
#1800000
0#
0-
#1810000
1#
1$
0%
0&
b10 '
b1001 (
1-
1.
b1001 2
b1 6
#1820000
0#
0-
#1830000
1#
1%
1*
1-
1/
14
b10 6
#1840000
0#
0-
#1850000
1#
1-
b101 3
14
05
b11 6
#1860000
0#
0-
#1870000
1#
0$
0%
0&
0*
1-
0.
0/
04
05
b1 6
#1880000
0#
0-
#1890000
1#
1-
b1 6
#1900000
0#
0-
#1910000
1#
1$
0%
1&
b100 '
b1001 (
1-
1.
10
b100 1
b1 6
#1920000
0#
0-
#1930000
1#
1%
1*
1-
1/
14
b10 6
#1940000
0#
0-
#1950000
1#
1-
05
b11 6
#1960000
0#
0-
#1970000
1#
0$
0%
0&
0*
1-
0.
0/
00
04
05
b1 6
#1980000
0#
0-
#1990000
1#
1-
b1 6
#2000000
0#
0-
#2010000
1#
1$
0%
1&
b100 '
b10 (
1-
1.
10
b10 2
b1 6
#2020000
0#
0-
#2030000
1#
1%
1*
1-
1/
14
b10 6
#2040000
0#
0-
#2050000
1#
1-
05
b11 6
#2060000
0#
0-
#2070000
1#
0$
0%
0&
0*
1-
0.
0/
00
04
05
b1 6
#2080000
0#
0-
#2090000
1#
1-
b1 6
#2100000
0#
0-
#2110000
1#
1$
0%
0&
b100 '
b10 (
1-
1.
b1 6
#2120000
0#
0-
#2130000
1#
1%
1*
1-
1/
14
b10 6
#2140000
0#
0-
#2150000
1#
b10 )
1-
b10 3
14
05
b11 6
#2160000
0#
0-
#2170000
1#
0$
0%
0&
0*
1-
0.
0/
04
05
b1 6
#2180000
0#
0-
#2190000
1#
1-
b1 6
#2200000
0#
0-
#2210000
1#
1$
0%
1&
b10 '
b11 (
1-
1.
10
b10 1
b11 2
b1 6
#2220000
0#
0-
#2230000
1#
1%
1*
1-
1/
14
b10 6
#2240000
0#
0-
#2250000
1#
1-
05
b11 6
#2260000
0#
0-
#2270000
1#
0$
0%
0&
0*
1-
0.
0/
00
04
05
b1 6
#2280000
0#
0-
#2290000
1#
1-
b1 6
#2300000
0#
0-
#2310000
1#
1$
0%
1&
b10 '
b1001 (
1-
1.
10
b1001 2
b1 6
#2320000
0#
0-
#2330000
1#
1%
1*
1-
1/
14
b10 6
#2340000
0#
0-
#2350000
1#
1-
05
b11 6
#2360000
0#
0-
#2370000
1#
0$
0%
0&
0*
1-
0.
0/
00
04
05
b1 6
#2380000
0#
0-
#2390000
1#
1-
b1 6
#2400000
0#
0-
#2410000
1#
1$
0%
0&
b100 '
b111 (
1-
1.
b100 1
b111 2
b1 6
#2420000
0#
0-
#2430000
1#
1%
1*
1-
1/
14
b10 6
#2440000
0#
0-
#2450000
1#
1-
b10 3
14
05
b11 6
#2460000
0#
0-
#2470000
1#
0$
0%
0&
0*
1-
0.
0/
04
05
b1 6
#2480000
0#
0-
#2490000
1#
1-
b1 6
#2500000
0#
0-
#2510000
1#
1$
0%
0&
b100 '
b111 (
1-
1.
b1 6
#2520000
0#
0-
#2530000
1#
1%
1*
1-
1/
14
b10 6
#2540000
0#
0-
#2550000
1#
1-
b10 3
14
05
b11 6
#2560000
0#
0-
#2570000
1#
0$
0%
0&
0*
1-
0.
0/
04
05
b1 6
#2580000
0#
0-
#2590000
1#
1-
b1 6
#2600000
0#
0-
#2610000
1#
1$
0%
0&
b11 '
b1000 (
1-
1.
b11 1
b1000 2
b1 6
#2620000
0#
0-
#2630000
1#
1%
1*
1-
1/
14
b10 6
#2640000
0#
0-
#2650000
1#
b100 )
1-
b100 3
14
05
b11 6
#2660000
0#
0-
#2670000
1#
0$
0%
0&
0*
1-
0.
0/
04
05
b1 6
#2680000
0#
0-
#2690000
1#
1-
b1 6
#2700000
0#
0-
#2710000
1#
1$
0%
1&
b11 '
b1001 (
1-
1.
10
b1001 2
b1 6
#2720000
0#
0-
#2730000
1#
1%
1*
1-
1/
14
b10 6
#2740000
0#
0-
#2750000
1#
1-
05
b11 6
#2760000
0#
0-
#2770000
1#
0$
0%
0&
0*
1-
0.
0/
00
04
05
b1 6
#2780000
0#
0-
#2790000
1#
1-
b1 6
#2800000
0#
0-
#2810000
1#
1$
0%
0&
b10 '
b111 (
1-
1.
b10 1
b111 2
b1 6
#2820000
0#
0-
#2830000
1#
1%
1*
1-
1/
14
b10 6
#2840000
0#
0-
#2850000
1#
b1001 )
1-
b1001 3
14
05
b11 6
#2860000
0#
0-
#2870000
1#
0$
0%
0&
0*
1-
0.
0/
04
05
b1 6
#2880000
0#
0-
#2890000
1#
1-
b1 6
#2900000
0#
0-
#2910000
1#
1$
0%
0&
b1011011 '
b100 (
1-
1.
b1011011 1
b100 2
b1 6
#2920000
0#
0-
#2930000
1#
1%
1-
1/
04
b10 6
#2940000
0#
0-
#2950000
1#
bx )
1*
1+
1-
bx 3
14
15
b11 6
#2960000
0#
0-
#2970000
1#
0$
0%
0&
0*
0+
1-
0.
0/
04
05
b1 6
#2980000
0#
0-
#2990000
1#
1-
b1 6
#3000000
0#
0-
#3010000
1#
1$
0%
1&
b1000011 '
b1000 (
1-
1.
10
b1000011 1
b1000 2
b1 6
#3020000
0#
0-
#3030000
1#
1%
1-
1/
04
b10 6
#3040000
0#
0-
#3050000
1#
1*
1+
1-
14
15
b11 6
#3060000
0#
0-
#3070000
1#
0$
0%
0&
0*
0+
1-
0.
0/
00
04
05
b1 6
#3080000
0#
0-
#3090000
1#
1-
b1 6
#3100000
0#
0-
#3110000
1#
1$
0%
1&
b1000100 '
b1001 (
1-
1.
10
b1000100 1
b1001 2
b1 6
#3120000
0#
0-
#3130000
1#
1%
1-
1/
04
b10 6
#3140000
0#
0-
#3150000
1#
1*
1+
1-
14
15
b11 6
#3160000
0#
0-
#3170000
1#
0$
0%
0&
0*
0+
1-
0.
0/
00
04
05
b1 6
