Part_2/Section_7/Section_7.sim/sim_1/behav/xsim/dump.vcd
$date
   Fri Aug 25 12:54:12 2023
$end
$version
  2022.1
$end
$timescale
  1ps
$end
$scope module tb $end
$var reg 32 ! mon $end
$var reg 32 " gen $end
$var reg 32 # drv $end
$var reg 32 $ sco $end
$var event 32 % nextgd $end
$var event 32 & nextgm $end
$var reg 32 ' mbxgd $end
$var reg 32 ( mbxms $end
$scope module vif $end
$var reg 1 ) awvalid $end
$var reg 1 * awready $end
$var reg 4 + awid [3:0] $end
$var reg 4 , awlen [3:0] $end
$var reg 3 - awsize [2:0] $end
$var reg 32 . awaddr [31:0] $end
$var reg 2 / awburst [1:0] $end
$var reg 1 0 wvalid $end
$var reg 1 1 wready $end
$var reg 4 2 wid [3:0] $end
$var reg 32 3 wdata [31:0] $end
$var reg 4 4 wstrb [3:0] $end
$var reg 1 5 wlast $end
$var reg 1 6 bready $end
$var reg 1 7 bvalid $end
$var reg 4 8 bid [3:0] $end
$var reg 2 9 bresp [1:0] $end
$var reg 1 : arvalid $end
$var reg 1 ; arready $end
$var reg 4 < arid [3:0] $end
$var reg 4 = arlen [3:0] $end
$var reg 3 > arsize [2:0] $end
$var reg 32 ? araddr [31:0] $end
$var reg 2 @ arburst [1:0] $end
$var reg 1 A rvalid $end
$var reg 1 B rready $end
$var reg 4 C rid [3:0] $end
$var reg 32 D rdata [31:0] $end
$var reg 4 E rstrb [3:0] $end
$var reg 1 F rlast $end
$var reg 2 G rresp [1:0] $end
$var reg 1 H clk $end
$var reg 1 I resetn $end
$var reg 32 J addr_wrapwr [31:0] $end
$var reg 32 K addr_wraprd [31:0] $end
$upscope $end
$scope module dut $end
$var wire 1 L clk $end
$var wire 1 M resetn $end
$var wire 1 N awvalid $end
$var reg 1 O awready $end
$var wire 4 P awid [3:0] $end
$var wire 4 Q awlen [3:0] $end
$var wire 3 R awsize [2:0] $end
$var wire 32 S awaddr [31:0] $end
$var wire 2 T awburst [1:0] $end
$var wire 1 U wvalid $end
$var reg 1 V wready $end
$var wire 4 W wid [3:0] $end
$var wire 32 X wdata [31:0] $end
$var wire 4 Y wstrb [3:0] $end
$var wire 1 Z wlast $end
$var wire 1 [ bready $end
$var reg 1 \ bvalid $end
$var reg 4 ] bid [3:0] $end
$var reg 2 ^ bresp [1:0] $end
$var reg 1 _ arready $end
$var wire 4 ` arid [3:0] $end
$var wire 32 a araddr [31:0] $end
$var wire 4 b arlen [3:0] $end
$var wire 3 c arsize [2:0] $end
$var wire 2 d arburst [1:0] $end
$var wire 1 e arvalid $end
$var reg 4 f rid [3:0] $end
$var reg 32 g rdata [31:0] $end
$var reg 2 h rresp [1:0] $end
$var reg 1 i rlast $end
$var reg 1 j rvalid $end
$var wire 1 k rready $end
$var reg 2 l awstate $end
$var reg 2 m awnext_state $end
$var reg 32 n awaddrt [31:0] $end
$var reg 32 o wdatat [31:0] $end
$var reg 32 p retaddr [31:0] $end
$var reg 32 q nextaddr [31:0] $end
$var reg 1 r first $end
$var reg 8 s boundary [7:0] $end
$var reg 4 t wlen_count [3:0] $end
$var reg 3 u wstate $end
$var reg 3 v wnext_state $end
$var reg 2 w bstate $end
$var reg 2 x bnext_state $end
$var reg 2 y arstate $end
$var reg 2 z arnext_state $end
$var reg 32 { araddrt [31:0] $end
$var reg 1 | rdfirst $end
$var reg 32 } rdnextaddr [31:0] $end
$var reg 32 ~ rdretaddr [31:0] $end
$var reg 4 !! len_count [3:0] $end
$var reg 8 "! rdboundary [7:0] $end
$var reg 3 #! rstate $end
$var reg 3 $! rnext_state $end
$scope function data_wr_fixed $end
$var reg 32 %! data_wr_fixed [31:0] $end
$var reg 4 &! wstrb [3:0] $end
$var reg 32 '! awaddrt [31:0] $end
$upscope $end
$scope function data_wr_incr $end
$var reg 32 (! data_wr_incr [31:0] $end
$var reg 4 )! wstrb [3:0] $end
$var reg 32 *! awaddrt [31:0] $end
$var reg 32 +! addr [31:0] $end
$upscope $end
$scope function wrap_boundary $end
$var reg 8 ,! wrap_boundary [7:0] $end
$var reg 4 -! awlen [3:0] $end
$var reg 3 .! awsize [2:0] $end
$var reg 8 /! boundary [7:0] $end
$upscope $end
$scope function data_wr_wrap $end
$var reg 32 0! data_wr_wrap [31:0] $end
$var reg 4 1! wstrb [3:0] $end
$var reg 32 2! awaddrt [31:0] $end
$var reg 8 3! wboundary [7:0] $end
$var reg 32 4! addr1 [31:0] $end
$var reg 32 5! addr2 [31:0] $end
$var reg 32 6! addr3 [31:0] $end
$var reg 32 7! addr4 [31:0] $end
$var reg 32 8! nextaddr [31:0] $end
$var reg 32 9! nextaddr2 [31:0] $end
$upscope $end
$scope function read_data_fixed $end
$var reg 32 :! addr [31:0] $end
$var reg 3 ;! arsize [2:0] $end
$upscope $end
$scope function read_data_incr $end
$var reg 32 <! read_data_incr [31:0] $end
$var reg 32 =! addr [31:0] $end
$var reg 3 >! arsize [2:0] $end
$var reg 32 ?! nextaddr [31:0] $end
$upscope $end
$scope function read_data_wrap $end
$var reg 32 @! read_data_wrap [31:0] $end
$var reg 32 A! addr [31:0] $end
$var reg 3 B! rsize [2:0] $end
$var reg 8 C! rboundary [7:0] $end
$var reg 32 D! addr1 [31:0] $end
$var reg 32 E! addr2 [31:0] $end
$var reg 32 F! addr3 [31:0] $end
$var reg 32 G! addr4 [31:0] $end
$upscope $end
$upscope $end
$upscope $end
$enddefinitions $end
#0
$dumpvars
b100001101110100000000011011000 !
b0 !!
b100001101110100000000000111000 "
bx "!
b100001101110100000000010001000 #
b0 #!
b100001101111000000000000111000 $
b0 $!
bx %
b0 %!
bx &
bx &!
b100001101110010000000000111000 '
bx '!
b100001101110010000000010101000 (
b0 (!
0)
bx )!
0*
bx *!
b0 +
b0 +!
b0 ,
b0 ,!
b0 -
b0 -!
b0 .
b0 .!
b0 /
b0 /!
00
b0 0!
01
bx 1!
b0 2
bx 2!
b0 3
bx 3!
b0 4
b0 4!
05
b0 5!
06
b0 6!
07
b0 7!
b0 8
b0 8!
b0 9
b0 9!
0:
bx :!
0;
bx ;!
b0 <
b0 <!
b0 =
bx =!
b0 >
bx >!
b0 ?
b0 ?!
b0 @
b0 @!
0A
b0 A!
xB
b0 B!
b0 C
bx C!
b0 D
b0 D!
bx E
b0 E!
0F
b0 F!
b0 G
b0 G!
0H
0I
bx J
b0 K
0L
0M
0N
0O
b0 P
b0 Q
b0 R
b0 S
b0 T
0U
0V
b0 W
b0 X
b0 Y
0Z
0[
0\
b0 ]
b0 ^
0_
b0 `
b0 a
b0 b
b0 c
b0 d
0e
b0 f
b0 g
b0 h
0i
0j
xk
b0 l
b1 m
bx n
bx o
bx p
bx q
0r
bx s
b0 t
b0 u
b1 v
b0 w
b1 x
b0 y
b1 z
bx {
0|
b0 }
b0 ~
$end
#5000
b0 #!
1H
1L
b0 l
b0 u
b0 w
b0 y
#10000
0H
0L
#15000
b0 #!
1H
1L
b0 l
b0 u
b0 w
b0 y
#20000
0H
0L
#25000
b0 #!
1H
1L
b0 l
b0 u
b0 w
b0 y
#30000
0H
0L
#35000
b0 #!
1H
1L
b0 l
b0 u
b0 w
b0 y
#40000
0H
0L
#45000
b0 #!
1H
1I
1L
1M
b0 l
b0 u
b0 w
b0 y
#50000
0H
0L
#55000
b0 #!
1)
b0 +
b111 ,
b10 -
b101 .
b10 /
10
b0 2
b111100 3
b1111 4
16
0:
1H
1I
1L
1N
b111 Q
b10 R
b101 S
b10 T
1U
b111100 X
b1111 Y
1[
b1 l
b10 m
b101 n
b111100 o
b1 u
b100 v
b1 w
b1 x
b1 y
b1 z
#60000
0H
0L
#65000
b0 #!
1*
1H
1L
1O
b10 l
b0 m
b101 q
1r
b100 u
b10 v
b1 w
b1 y
#70000
0H
0L
#75000
b0 !!
b0 #!
b0 $!
0*
b100000 ,!
b111 -!
b10 .!
b100000 /!
b1001 0!
11
b1111 1!
b101 2!
b100000 3!
b110 4!
b111 5!
b1000 6!
b1001 7!
1H
b1001 J
1L
0O
1V
b0 f
b0 g
b0 h
0i
0j
b0 l
b1 m
b1001 p
b100000 s
b10 u
b11 v
b1 w
b1 y
#80000
0H
0L
#85000
b0 #!
b1001 .
01
b100111 3
1H
1L
b1001 S
0V
b100111 X
b1 l
b10 m
b1001 n
b1 t
b11 u
b1 v
b1 w
b1 x
b1 y
#90000
0H
0L
#95000
b0 #!
1*
1H
1L
1O
b10 l
b0 m
b100111 o
b1 u
b100 v
b1 w
b1 y
#100000
0H
0L
#105000
b0 #!
0*
1H
1L
0O
b0 l
b1 m
b1001 q
b100 u
b10 v
b1 w
b1 y
#110000
0H
0L
#115000
b0 !!
b0 #!
b0 $!
b100000 ,!
b111 -!
b10 .!
b100000 /!
b1101 0!
11
b1111 1!
b1001 2!
b100000 3!
b1010 4!
b1011 5!
b1100 6!
b1101 7!
1H
b1101 J
1L
1V
b0 f
b0 g
b0 h
0i
0j
b1 l
b10 m
b1001 n
b1101 p
b100000 s
b10 u
b11 v
b1 w
b1 y
#120000
0H
0L
#125000
b0 #!
1*
b1101 .
01
b100010 3
1H
1L
1O
b1101 S
0V
b100010 X
b10 l
b0 m
b10 t
b11 u
b1 v
b1 w
b1 x
b1 y
#130000
0H
0L
#135000
b0 #!
0*
1H
1L
0O
b0 l
b1 m
b100010 o
b1 u
b100 v
b1 w
b1 y
#140000
0H
0L
#145000
b0 #!
1H
1L
b1 l
b10 m
b1101 n
b1101 q
b100 u
b10 v
b1 w
b1 y
#150000
0H
0L
#155000
b0 !!
b0 #!
b0 $!
1*
b100000 ,!
b111 -!
b10 .!
b100000 /!
b10001 0!
11
b1111 1!
b1101 2!
b100000 3!
b1110 4!
b1111 5!
b10000 6!
b10001 7!
1H
b10001 J
1L
1O
1V
b0 f
b0 g
b0 h
0i
0j
b10 l
b0 m
b10001 p
b100000 s
b10 u
b11 v
b1 w
b1 y
#160000
0H
0L
#165000
b0 #!
0*
b10001 .
01
b1010100 3
1H
1L
0O
b10001 S
0V
b1010100 X
b0 l
b1 m
b11 t
b11 u
b1 v
b1 w
b1 x
b1 y
#170000
0H
0L
#175000
b0 #!
1H
1L
b1 l
b10 m
b10001 n
b1010100 o
b1 u
b100 v
b1 w
b1 y
#180000
0H
0L
#185000
b0 #!
1*
1H
1L
1O
b10 l
b0 m
b10001 q
b100 u
b10 v
b1 w
b1 y
#190000
0H
0L
#195000
b0 !!
b0 #!
b0 $!
0*
b100000 ,!
b111 -!
b10 .!
b100000 /!
b10101 0!
11
b1111 1!
b10001 2!
b100000 3!
b10010 4!
b10011 5!
b10100 6!
b10101 7!
1H
b10101 J
1L
0O
1V
b0 f
b0 g
b0 h
0i
0j
b0 l
b1 m
b10101 p
b100000 s
b10 u
b11 v
b1 w
b1 y
#200000
0H
0L
#205000
b0 #!
b10101 .
01
b1100011 3
1H
1L
b10101 S
0V
b1100011 X
b1 l
b10 m
b10101 n
b100 t
b11 u
b1 v
b1 w
b1 x
b1 y
#210000
0H
0L
#215000
b0 #!
1*
1H
1L
1O
b10 l
b0 m
b1100011 o
b1 u
b100 v
b1 w
b1 y
#220000
0H
0L
#225000
b0 #!
0*
1H
1L
0O
b0 l
b1 m
b10101 q
b100 u
b10 v
b1 w
b1 y
#230000
0H
0L
#235000
b0 !!
b0 #!
b0 $!
b100000 ,!
b111 -!
b10 .!
b100000 /!
b11001 0!
11
b1111 1!
b10101 2!
b100000 3!
b10110 4!
b10111 5!
b11000 6!
b11001 7!
1H
b11001 J
1L
1V
b0 f
b0 g
b0 h
0i
0j
b1 l
b10 m
b10101 n
b11001 p
b100000 s
b10 u
b11 v
b1 w
b1 y
#240000
0H
0L
#245000
b0 #!
1*
b11001 .
01
b111110 3
1H
1L
1O
b11001 S
0V
b111110 X
b10 l
b0 m
b101 t
b11 u
b1 v
b1 w
b1 x
b1 y
#250000
0H
0L
#255000
b0 #!
0*
1H
1L
0O
b0 l
b1 m
b111110 o
b1 u
b100 v
b1 w
b1 y
#260000
0H
0L
#265000
b0 #!
1H
1L
b1 l
b10 m
b11001 n
b11001 q
b100 u
b10 v
b1 w
b1 y
#270000
0H
0L
#275000
b0 !!
b0 #!
b0 $!
1*
b100000 ,!
b111 -!
b10 .!
b100000 /!
b11101 0!
11
b1111 1!
b11001 2!
b100000 3!
b11010 4!
b11011 5!
b11100 6!
b11101 7!
1H
b11101 J
1L
1O
1V
b0 f
b0 g
b0 h
0i
0j
b10 l
b0 m
b11101 p
b100000 s
b10 u
b11 v
b1 w
b1 y
#280000
0H
0L
#285000
b0 #!
0*
b11101 .
01
b11010 3
1H
1L
0O
b11101 S
0V
b11010 X
b0 l
b1 m
b110 t
b11 u
b1 v
b1 w
b1 x
b1 y
#290000
0H
0L
#295000
b0 #!
1H
1L
b1 l
b10 m
b11101 n
b11010 o
b1 u
b100 v
b1 w
b1 y
#300000
0H
0L
#305000
b0 #!
1*
1H
1L
1O
b10 l
b0 m
b11101 q
b100 u
b10 v
b1 w
b1 y
#310000
0H
0L
#315000
b0 !!
b0 #!
b0 $!
0*
b100000 ,!
b111 -!
b10 .!
b100000 /!
b1 0!
11
b1111 1!
b11101 2!
b100000 3!
b11110 4!
b11111 5!
b0 6!
b1 7!
1H
b1 J
1L
0O
1V
b0 f
b0 g
b0 h
0i
0j
b0 l
b1 m
b1 p
b100000 s
b10 u
b11 v
b1 w
b1 y
#320000
0H
0L
#325000
b0 #!
b1 .
01
b1111 3
1H
1L
b1 S
0V
b1111 X
b1 l
b10 m
b1 n
b111 t
b11 u
b1 v
b1 w
b1 x
b1 y
#330000
0H
0L
#335000
b0 #!
1*
1H
1L
1O
b10 l
b0 m
b1111 o
b1 u
b100 v
b1 w
b1 y
#340000
0H
0L
#345000
b0 #!
0*
1H
1L
0O
b0 l
b1 m
b1 q
b100 u
b10 v
b1 w
b1 y
#350000
0H
0L
#355000
b0 !!
b0 #!
b0 $!
b100000 ,!
b111 -!
b10 .!
b100000 /!
b101 0!
11
b1111 1!
b1 2!
b100000 3!
b10 4!
b11 5!
b100 6!
b101 7!
1H
b101 J
1L
1V
b0 f
b0 g
b0 h
0i
0j
b1 l
b10 m
b1 n
b101 p
b100000 s
b10 u
b11 v
b1 w
b1 y
#360000
0H
0L
#365000
b0 #!
1*
01
15
1H
1L
1O
0V
1Z
b10 l
b0 m
b1000 t
b11 u
b1 v
b1 w
b10 x
b1 y
#370000
0H
0L
#375000
b0 #!
0)
0*
00
05
17
0:
1H
1L
0N
0O
0U
0Z
1\
b0 ]
b0 ^
b0 l
b1 m
b1 u
b1 v
b10 w
b11 x
b1 y
#380000
0H
0L
#385000
b0 #!
1H
1L
b1 l
b1 m
b1 u
b11 w
b0 x
b1 y
#390000
0H
0L
#395000
b0 #!
07
1H
1L
0\
b0 ]
b0 ^
b1 l
b1 u
b0 w
b1 x
b1 y
#400000
0H
0L
#405000
b0 #!
1H
1L
b1 l
b1 u
b1 w
b1 x
b1 y
#410000
0H
0L
#415000
b0 #!
1)
b101 +
b111 ,
b10 -
b101 .
b10 /
10
b101 2
b111001 3
b1111 4
16
0:
1H
1I
1L
1N
b101 P
b101 S
1U
b101 W
b111001 X
b1 l
b10 m
b101 n
b111001 o
b1 u
b100 v
b1 w
b1 x
b1 y
#420000
0H
0L
#425000
b0 #!
1*
1H
1L
1O
b10 l
b0 m
b101 q
b100 u
b10 v
b1 w
b1 y
#430000
0H
0L
#435000
b0 !!
b0 #!
b0 $!
0*
b100000 ,!
b111 -!
b10 .!
b100000 /!
b1001 0!
11
b1111 1!
b101 2!
b100000 3!
b110 4!
b111 5!
b1000 6!
b1001 7!
1H
b1001 J
1L
0O
1V
b0 f
b0 g
b0 h
0i
0j
b0 l
b1 m
b1001 p
b100000 s
b10 u
b11 v
b1 w
b1 y
#440000
0H
0L
#445000
b0 #!
b1001 .
01
b111011 3
1H
1L
b1001 S
0V
b111011 X
b1 l
b10 m
b1001 n
b1000 t
b11 u
b1 v
b1 w
b1 x
b1 y
#450000
0H
0L
#455000
b0 #!
1*
1H
1L
1O
b10 l
b0 m
b111011 o
b1 u
b100 v
b1 w
b1 y
#460000
0H
0L
#465000
b0 #!
0*
1H
1L
0O
b0 l
b1 m
b1001 q
b100 u
b10 v
b1 w
b1 y
#470000
0H
0L
#475000
b0 !!
b0 #!
b0 $!
b100000 ,!
b111 -!
b10 .!
b100000 /!
b1101 0!
11
b1111 1!
b1001 2!
b100000 3!
b1010 4!
b1011 5!
b1100 6!
b1101 7!
1H
b1101 J
1L
1V
b0 f
b0 g
b0 h
0i
0j
b1 l
b10 m
b1001 n
b1101 p
b100000 s
b10 u
b11 v
b1 w
b1 y
#480000
0H
0L
#485000
b0 #!
1*
b1101 .
01
b1100010 3
1H
1L
1O
b1101 S
0V
b1100010 X
b10 l
b0 m
b1000 t
b11 u
b1 v
b1 w
b1 x
b1 y
#490000
0H
0L
#495000
b0 #!
0*
1H
1L
0O
b0 l
b1 m
b1100010 o
b1 u
b100 v
b1 w
b1 y
#500000
0H
0L
#505000
b0 #!
1H
1L
b1 l
b10 m
b1101 n
b1101 q
b100 u
b10 v
b1 w
b1 y
#510000
0H
0L
#515000
b0 !!
b0 #!
b0 $!
1*
b100000 ,!
b111 -!
b10 .!
b100000 /!
b10001 0!
11
b1111 1!
b1101 2!
b100000 3!
b1110 4!
b1111 5!
b10000 6!
b10001 7!
1H
b10001 J
1L
1O
1V
b0 f
b0 g
b0 h
0i
0j
b10 l
b0 m
b10001 p
b100000 s
b10 u
b11 v
b1 w
b1 y
#520000
0H
0L
#525000
b0 #!
0*
b10001 .
01
b110111 3
1H
1L
0O
b10001 S
0V
b110111 X
b0 l
b1 m
b1000 t
b11 u
b1 v
b1 w
b1 x
b1 y
#530000
0H
0L
#535000
b0 #!
1H
1L
b1 l
b10 m
b10001 n
b110111 o
b1 u
b100 v
b1 w
b1 y
#540000
0H
0L
#545000
b0 #!
1*
1H
1L
1O
b10 l
b0 m
b10001 q
b100 u
b10 v
b1 w
b1 y
#550000
0H
0L
#555000
b0 !!
b0 #!
b0 $!
0*
b100000 ,!
b111 -!
b10 .!
b100000 /!
b10101 0!
11
b1111 1!
b10001 2!
b100000 3!
b10010 4!
b10011 5!
b10100 6!
b10101 7!
1H
b10101 J
1L
0O
1V
b0 f
b0 g
b0 h
0i
0j
b0 l
b1 m
b10101 p
b100000 s
b10 u
b11 v
b1 w
b1 y
#560000
0H
0L
#565000
b0 #!
b10101 .
01
b11001 3
1H
1L
b10101 S
0V
b11001 X
b1 l
b10 m
b10101 n
b1000 t
b11 u
b1 v
b1 w
b1 x
b1 y
#570000
0H
0L
#575000
b0 #!
1*
1H
1L
1O
b10 l
b0 m
b11001 o
b1 u
b100 v
b1 w
b1 y
#580000
0H
0L
#585000
b0 #!
0*
1H
1L
0O
b0 l
b1 m
b10101 q
b100 u
b10 v
b1 w
b1 y
#590000
0H
0L
#595000
b0 !!
b0 #!
b0 $!
b100000 ,!
b111 -!
b10 .!
b100000 /!
b11001 0!
11
b1111 1!
b10101 2!
b100000 3!
b10110 4!
b10111 5!
b11000 6!
b11001 7!
1H
b11001 J
1L
1V
b0 f
b0 g
b0 h
0i
0j
b1 l
b10 m
b10101 n
b11001 p
b100000 s
b10 u
b11 v
b1 w
b1 y
#600000
0H
0L
#605000
b0 #!
1*
b11001 .
01
b1010000 3
1H
1L
1O
b11001 S
0V
b1010000 X
b10 l
b0 m
b1000 t
b11 u
b1 v
b1 w
b1 x
b1 y
#610000
0H
0L
#615000
b0 #!
0*
1H
1L
0O
b0 l
b1 m
b1010000 o
b1 u
b100 v
b1 w
b1 y
#620000
0H
0L
#625000
b0 #!
1H
1L
b1 l
b10 m
b11001 n
b11001 q
b100 u
b10 v
b1 w
b1 y
#630000
0H
0L
#635000
b0 !!
b0 #!
b0 $!
1*
b100000 ,!
b111 -!
b10 .!
b100000 /!
b11101 0!
11
b1111 1!
b11001 2!
b100000 3!
b11010 4!
b11011 5!
b11100 6!
b11101 7!
1H
b11101 J
1L
1O
1V
b0 f
b0 g
b0 h
0i
0j
b10 l
b0 m
b11101 p
b100000 s
b10 u
b11 v
b1 w
b1 y
#640000
0H
0L
#645000
b0 #!
0*
b11101 .
01
b10101 3
1H
1L
0O
b11101 S
0V
b10101 X
b0 l
b1 m
b1000 t
b11 u
b1 v
b1 w
b1 x
b1 y
#650000
0H
0L
#655000
b0 #!
1H
1L
b1 l
b10 m
b11101 n
b10101 o
b1 u
b100 v
b1 w
b1 y
#660000
0H
0L
#665000
b0 #!
1*
1H
1L
1O
b10 l
b0 m
b11101 q
b100 u
b10 v
b1 w
b1 y
#670000
0H
0L
#675000
b0 !!
b0 #!
b0 $!
0*
b100000 ,!
b111 -!
b10 .!
b100000 /!
b1 0!
11
b1111 1!
b11101 2!
b100000 3!
b11110 4!
b11111 5!
b0 6!
b1 7!
1H
b1 J
1L
0O
1V
b0 f
b0 g
b0 h
0i
0j
b0 l
b1 m
b1 p
b100000 s
b10 u
b11 v
b1 w
b1 y
#680000
0H
0L
#685000
b0 #!
b1 .
01
b1010101 3
1H
1L
b1 S
0V
b1010101 X
b1 l
b10 m
b1 n
b1000 t
b11 u
b1 v
b1 w
b1 x
b1 y
#690000
0H
0L
#695000
b0 #!
1*
1H
1L
1O
b10 l
b0 m
b1010101 o
b1 u
b100 v
b1 w
b1 y
#700000
0H
0L
#705000
b0 #!
0*
1H
1L
0O
b0 l
b1 m
b1 q
b100 u
b10 v
b1 w
b1 y
#710000
0H
0L
#715000
b0 !!
b0 #!
b0 $!
b100000 ,!
b111 -!
b10 .!
b100000 /!
b101 0!
11
b1111 1!
b1 2!
b100000 3!
b10 4!
b11 5!
b100 6!
b101 7!
1H
b101 J
1L
1V
b0 f
b0 g
b0 h
0i
0j
b1 l
b10 m
b1 n
b101 p
b100000 s
b10 u
b11 v
b1 w
b1 y
#720000
0H
0L
#725000
b0 #!
1*
01
15
1H
1L
1O
0V
1Z
b10 l
b0 m
b1000 t
b11 u
b1 v
b1 w
b10 x
b1 y
#730000
0H
0L
#735000
b0 #!
0)
0*
00
05
17
b101 8
0:
1H
1L
0N
0O
0U
0Z
1\
b101 ]
b0 ^
b0 l
b1 m
b1 u
b1 v
b10 w
b11 x
b1 y
#740000
0H
0L
#745000
b0 #!
1H
1L
b1 l
b1 m
b1 u
b11 w
b0 x
b1 y
#750000
0H
0L
#755000
b0 #!
07
b0 8
1H
1L
0\
b0 ]
b0 ^
b1 l
b1 u
b0 w
b1 x
b1 y
#760000
0H
0L
#765000
b0 #!
1H
1L
b1 l
b1 u
b1 w
b1 x
b1 y
#770000
0H
0L
#775000
b0 #!
1)
b1101 +
b111 ,
b10 -
b101 .
b10 /
10
b1101 2
b1011010 3
b1111 4
16
0:
1H
1I
1L
1N
b1101 P
b101 S
1U
b1101 W
b1011010 X
b1 l
b10 m
b101 n
b1011010 o
b1 u
b100 v
b1 w
b1 x
b1 y
#780000
0H
0L
#785000
b0 #!
1*
1H
1L
1O
b10 l
b0 m
b101 q
b100 u
b10 v
b1 w
b1 y
#790000
0H
0L
#795000
b0 !!
b0 #!
b0 $!
0*
b100000 ,!
b111 -!
b10 .!
b100000 /!
b1001 0!
11
b1111 1!
b101 2!
b100000 3!
b110 4!
b111 5!
b1000 6!
b1001 7!
1H
b1001 J
1L
0O
1V
b0 f
b0 g
b0 h
0i
0j
b0 l
b1 m
b1001 p
b100000 s
b10 u
b11 v
b1 w
b1 y
#800000
0H
0L
#805000
b0 #!
b1001 .
01
b1001011 3
1H
1L
b1001 S
0V
b1001011 X
b1 l
b10 m
b1001 n
b1000 t
b11 u
b1 v
b1 w
b1 x
b1 y
#810000
0H
0L
#815000
b0 #!
1*
1H
1L
1O
b10 l
b0 m
b1001011 o
b1 u
b100 v
b1 w
b1 y
#820000
0H
0L
#825000
b0 #!
0*
1H
1L
0O
b0 l
b1 m
b1001 q
b100 u
b10 v
b1 w
b1 y
#830000
0H
0L
#835000
b0 !!
b0 #!
b0 $!
b100000 ,!
b111 -!
b10 .!
b100000 /!
b1101 0!
11
b1111 1!
b1001 2!
b100000 3!
b1010 4!
b1011 5!
b1100 6!
b1101 7!
1H
b1101 J
1L
1V
b0 f
b0 g
b0 h
0i
0j
b1 l
b10 m
b1001 n
b1101 p
b100000 s
b10 u
b11 v
b1 w
b1 y
#840000
0H
0L
#845000
b0 #!
1*
b1101 .
01
b1011011 3
1H
1L
1O
b1101 S
0V
b1011011 X
b10 l
b0 m
b1000 t
b11 u
b1 v
b1 w
b1 x
b1 y
#850000
0H
0L
#855000
b0 #!
0*
1H
1L
0O
b0 l
b1 m
b1011011 o
b1 u
b100 v
b1 w
b1 y
#860000
0H
0L
#865000
b0 #!
1H
1L
b1 l
b10 m
b1101 n
b1101 q
b100 u
b10 v
b1 w
b1 y
#870000
0H
0L
#875000
b0 !!
b0 #!
b0 $!
1*
b100000 ,!
b111 -!
b10 .!
b100000 /!
b10001 0!
11
b1111 1!
b1101 2!
b100000 3!
b1110 4!
b1111 5!
b10000 6!
b10001 7!
1H
b10001 J
1L
1O
1V
b0 f
b0 g
b0 h
0i
0j
b10 l
b0 m
b10001 p
b100000 s
b10 u
b11 v
b1 w
b1 y
#880000
0H
0L
#885000
b0 #!
0*
b10001 .
01
b1000010 3
1H
1L
0O
b10001 S
0V
b1000010 X
b0 l
b1 m
b1000 t
b11 u
b1 v
b1 w
b1 x
b1 y
#890000
0H
0L
#895000
b0 #!
1H
1L
b1 l
b10 m
b10001 n
b1000010 o
b1 u
b100 v
b1 w
b1 y
#900000
0H
0L
#905000
b0 #!
1*
1H
1L
1O
b10 l
b0 m
b10001 q
b100 u
b10 v
b1 w
b1 y
#910000
0H
0L
#915000
b0 !!
b0 #!
b0 $!
0*
b100000 ,!
b111 -!
b10 .!
b100000 /!
b10101 0!
11
b1111 1!
b10001 2!
b100000 3!
b10010 4!
b10011 5!
b10100 6!
b10101 7!
1H
b10101 J
1L
0O
1V
b0 f
b0 g
b0 h
0i
0j
b0 l
b1 m
b10101 p
b100000 s
b10 u
b11 v
b1 w
b1 y
#920000
0H
0L
#925000
b0 #!
b10101 .
01
b110110 3
1H
1L
b10101 S
0V
b110110 X
b1 l
b10 m
b10101 n
b1000 t
b11 u
b1 v
b1 w
b1 x
b1 y
#930000
0H
0L
#935000
b0 #!
1*
1H
1L
1O
b10 l
b0 m
b110110 o
b1 u
b100 v
b1 w
b1 y
#940000
0H
0L
#945000
b0 #!
0*
1H
1L
0O
b0 l
b1 m
b10101 q
b100 u
b10 v
b1 w
b1 y
#950000
0H
0L
#955000
b0 !!
b0 #!
b0 $!
b100000 ,!
b111 -!
b10 .!
b100000 /!
b11001 0!
11
b1111 1!
b10101 2!
b100000 3!
b10110 4!
b10111 5!
b11000 6!
b11001 7!
1H
b11001 J
1L
1V
b0 f
b0 g
b0 h
0i
0j
b1 l
b10 m
b10101 n
b11001 p
b100000 s
b10 u
b11 v
b1 w
b1 y
#960000
0H
0L
#965000
b0 #!
1*
b11001 .
01
b10000 3
1H
1L
1O
b11001 S
0V
b10000 X
b10 l
b0 m
b1000 t
b11 u
b1 v
b1 w
b1 x
b1 y
#970000
0H
0L
#975000
b0 #!
0*
1H
1L
0O
b0 l
b1 m
b10000 o
b1 u
b100 v
b1 w
b1 y
#980000
0H
0L
#985000
b0 #!
1H
1L
b1 l
b10 m
b11001 n
b11001 q
b100 u
b10 v
b1 w
b1 y
#990000
0H
0L
#995000
b0 !!
b0 #!
b0 $!
1*
b100000 ,!
b111 -!
b10 .!
b100000 /!
b11101 0!
11
b1111 1!
b11001 2!
b100000 3!
b11010 4!
b11011 5!
b11100 6!
b11101 7!
1H
b11101 J
1L
1O
1V
b0 f
b0 g
b0 h
0i
0j
b10 l
b0 m
b11101 p
b100000 s
b10 u
b11 v
b1 w
b1 y
#1000000
0H
0L
#1005000
b0 #!
0*
b11101 .
01
b110010 3
1H
1L
0O
b11101 S
0V
b110010 X
b0 l
b1 m
b1000 t
b11 u
b1 v
b1 w
b1 x
b1 y
#1010000
0H
0L
#1015000
b0 #!
1H
1L
b1 l
b10 m
b11101 n
b110010 o
b1 u
b100 v
b1 w
b1 y
#1020000
0H
0L
#1025000
b0 #!
1*
1H
1L
1O
b10 l
b0 m
b11101 q
b100 u
b10 v
b1 w
b1 y
#1030000
0H
0L
#1035000
b0 !!
b0 #!
b0 $!
0*
b100000 ,!
b111 -!
b10 .!
b100000 /!
b1 0!
11
b1111 1!
b11101 2!
b100000 3!
b11110 4!
b11111 5!
b0 6!
b1 7!
1H
b1 J
1L
0O
1V
b0 f
b0 g
b0 h
0i
0j
b0 l
b1 m
b1 p
b100000 s
b10 u
b11 v
b1 w
b1 y
#1040000
0H
0L
#1045000
b0 #!
b1 .
01
b101011 3
1H
1L
b1 S
0V
b101011 X
b1 l
b10 m
b1 n
b1000 t
b11 u
b1 v
b1 w
b1 x
b1 y
#1050000
0H
0L
#1055000
b0 #!
1*
1H
1L
1O
b10 l
b0 m
b101011 o
b1 u
b100 v
b1 w
b1 y
#1060000
0H
0L
#1065000
b0 #!
0*
1H
1L
0O
b0 l
b1 m
b1 q
b100 u
b10 v
b1 w
b1 y
#1070000
0H
0L
#1075000
b0 !!
b0 #!
b0 $!
b100000 ,!
b111 -!
b10 .!
b100000 /!
b101 0!
11
b1111 1!
b1 2!
b100000 3!
b10 4!
b11 5!
b100 6!
b101 7!
1H
b101 J
1L
1V
b0 f
b0 g
b0 h
0i
0j
b1 l
b10 m
b1 n
b101 p
b100000 s
b10 u
b11 v
b1 w
b1 y
#1080000
0H
0L
#1085000
b0 #!
1*
01
15
1H
1L
1O
0V
1Z
b10 l
b0 m
b1000 t
b11 u
b1 v
b1 w
b10 x
b1 y
#1090000
0H
0L
