Part_2/Section_7/Section_7.sim/sim_1/behav/xsim/simulate.log
Time resolution is 1 ps
[DRV] : RESET DONE
[GEN] : WR :1 RD:0 WRBUR : 2 RDBUR: 2 WRADDR :5 RDADDR : 5 WLEN :7 RLEN :7
[DRV] : WRAP MODE -> DATA WRITE DONE
[MON] : ADDR : 5 DATA : 3c BURST TYPE : 2
[SCO] : DATA STORED ADDR :5 and DATA :3c
[MON] : ADDR : 9 DATA : 27 BURST TYPE : 2
[SCO] : DATA STORED ADDR :9 and DATA :27
[MON] : ADDR : d DATA : 22 BURST TYPE : 2
[SCO] : DATA STORED ADDR :d and DATA :22
[MON] : ADDR : 11 DATA : 54 BURST TYPE : 2
[SCO] : DATA STORED ADDR :11 and DATA :54
[MON] : ADDR : 15 DATA : 63 BURST TYPE : 2
[SCO] : DATA STORED ADDR :15 and DATA :63
[MON] : ADDR : 19 DATA : 3e BURST TYPE : 2
[SCO] : DATA STORED ADDR :19 and DATA :3e
[MON] : ADDR : 1d DATA : 1a BURST TYPE : 2
[SCO] : DATA STORED ADDR :1d and DATA :1a
[MON] : ADDR : 1 DATA : f BURST TYPE : 2
[SCO] : DATA STORED ADDR :1 and DATA :f
[MON] : Transaction Complete
[GEN] : WR :1 RD:0 WRBUR : 2 RDBUR: 2 WRADDR :5 RDADDR : 5 WLEN :7 RLEN :7
[DRV] : WRAP MODE -> DATA WRITE DONE
[MON] : ADDR : 5 DATA : 39 BURST TYPE : 2
[SCO] : DATA STORED ADDR :5 and DATA :39
[MON] : ADDR : 9 DATA : 3b BURST TYPE : 2
[SCO] : DATA STORED ADDR :9 and DATA :3b
[MON] : ADDR : d DATA : 62 BURST TYPE : 2
[SCO] : DATA STORED ADDR :d and DATA :62
[MON] : ADDR : 11 DATA : 37 BURST TYPE : 2
[SCO] : DATA STORED ADDR :11 and DATA :37
[MON] : ADDR : 15 DATA : 19 BURST TYPE : 2
[SCO] : DATA STORED ADDR :15 and DATA :19
[MON] : ADDR : 19 DATA : 50 BURST TYPE : 2
[SCO] : DATA STORED ADDR :19 and DATA :50
[MON] : ADDR : 1d DATA : 15 BURST TYPE : 2
[SCO] : DATA STORED ADDR :1d and DATA :15
[MON] : ADDR : 1 DATA : 55 BURST TYPE : 2
[SCO] : DATA STORED ADDR :1 and DATA :55
[MON] : Transaction Complete
[GEN] : WR :1 RD:0 WRBUR : 2 RDBUR: 2 WRADDR :5 RDADDR : 5 WLEN :7 RLEN :7
[DRV] : WRAP MODE -> DATA WRITE DONE
[MON] : ADDR : 5 DATA : 5a BURST TYPE : 2
[SCO] : DATA STORED ADDR :5 and DATA :5a
[MON] : ADDR : 9 DATA : 4b BURST TYPE : 2
[SCO] : DATA STORED ADDR :9 and DATA :4b
[MON] : ADDR : d DATA : 5b BURST TYPE : 2
[SCO] : DATA STORED ADDR :d and DATA :5b
[MON] : ADDR : 11 DATA : 42 BURST TYPE : 2
[SCO] : DATA STORED ADDR :11 and DATA :42
[MON] : ADDR : 15 DATA : 36 BURST TYPE : 2
[SCO] : DATA STORED ADDR :15 and DATA :36
[MON] : ADDR : 19 DATA : 10 BURST TYPE : 2
[SCO] : DATA STORED ADDR :19 and DATA :10
[MON] : ADDR : 1d DATA : 32 BURST TYPE : 2
[SCO] : DATA STORED ADDR :1d and DATA :32
[MON] : ADDR : 1 DATA : 2b BURST TYPE : 2
[SCO] : DATA STORED ADDR :1 and DATA :2b
[MON] : Transaction Complete
[GEN] : WR :1 RD:0 WRBUR : 2 RDBUR: 2 WRADDR :5 RDADDR : 5 WLEN :7 RLEN :7
[DRV] : WRAP MODE -> DATA WRITE DONE
[MON] : ADDR : 5 DATA : 26 BURST TYPE : 2
[SCO] : DATA STORED ADDR :5 and DATA :26
[MON] : ADDR : 9 DATA : 5d BURST TYPE : 2
[SCO] : DATA STORED ADDR :9 and DATA :5d
[MON] : ADDR : d DATA : 41 BURST TYPE : 2
[SCO] : DATA STORED ADDR :d and DATA :41
[MON] : ADDR : 11 DATA : 5b BURST TYPE : 2
[SCO] : DATA STORED ADDR :11 and DATA :5b
[MON] : ADDR : 15 DATA : c BURST TYPE : 2
[SCO] : DATA STORED ADDR :15 and DATA :c
[MON] : ADDR : 19 DATA : e BURST TYPE : 2
[SCO] : DATA STORED ADDR :19 and DATA :e
[MON] : ADDR : 1d DATA : 25 BURST TYPE : 2
[SCO] : DATA STORED ADDR :1d and DATA :25
[MON] : ADDR : 1 DATA : 31 BURST TYPE : 2
[SCO] : DATA STORED ADDR :1 and DATA :31
[MON] : Transaction Complete
[GEN] : WR :0 RD:1 WRBUR : 2 RDBUR: 2 WRADDR :5 RDADDR : 5 WLEN :7 RLEN :7
[DRV] : WRAP MODE -> DATA READ COMPLETE
[MON] : ADDR : 5 DATA : 26 BURST TYPE : 2
[SCO] : DATA READ ADDR :5 and DATA :26 MEM :26
[SCO] : DATA MATCHED
[MON] : ADDR : 9 DATA : 5d BURST TYPE : 2
[SCO] : DATA READ ADDR :9 and DATA :5d MEM :5d
[SCO] : DATA MATCHED
[MON] : ADDR : d DATA : 41 BURST TYPE : 2
[SCO] : DATA READ ADDR :d and DATA :41 MEM :41
[SCO] : DATA MATCHED
[MON] : ADDR : 11 DATA : 5b BURST TYPE : 2
[SCO] : DATA READ ADDR :11 and DATA :5b MEM :5b
[SCO] : DATA MATCHED
[MON] : ADDR : 15 DATA : c BURST TYPE : 2
[SCO] : DATA READ ADDR :15 and DATA :c MEM :c
[SCO] : DATA MATCHED
[MON] : ADDR : 19 DATA : e BURST TYPE : 2
[SCO] : DATA READ ADDR :19 and DATA :e MEM :e
[SCO] : DATA MATCHED
[MON] : ADDR : 1d DATA : 25 BURST TYPE : 2
[SCO] : DATA READ ADDR :1d and DATA :25 MEM :25
[SCO] : DATA MATCHED
[MON] : ADDR : 1 DATA : 31 BURST TYPE : 2
[SCO] : DATA READ ADDR :1 and DATA :31 MEM :31
[SCO] : DATA MATCHED
[MON] : Transaction Complete
$finish called at time : 1755 ns : File "D:/Vivado/Verification/Part_2/Section_7/Section_7.srcs/sim_1/new/tb.sv" Line 766
