Part_2/Section_8/Section_8.sim/sim_1/behav/xsim/dump.vcd
$date
   Fri Sep 15 19:20:16 2023
$end
$version
  2021.2
$end
$timescale
  1ps
$end
$scope module tb $end
$var reg 32 ! mon $end
$var reg 32 " gen $end
$var reg 32 # drv $end
$var reg 32 $ sco $end
$var event 32 % nextgd $end
$var event 32 & nextgs $end
$var event 32 ' done $end
$var reg 32 ( mbxgd $end
$var reg 32 ) mbxms $end
$var reg 32 * mbxgm $end
$scope module vif $end
$var reg 1 + clk $end
$var reg 32 , hwdata [31:0] $end
$var reg 32 - haddr [31:0] $end
$var reg 3 . hsize [2:0] $end
$var reg 3 / hburst [2:0] $end
$var reg 1 0 hresetn $end
$var reg 1 1 hsel $end
$var reg 1 2 hwrite $end
$var reg 2 3 htrans [1:0] $end
$var reg 2 4 hresp [1:0] $end
$var reg 1 5 hready $end
$var reg 32 6 hrdata [31:0] $end
$var reg 32 7 next_addr [31:0] $end
$upscope $end
$scope module dut $end
$var wire 1 8 clk $end
$var wire 32 9 hwdata [31:0] $end
$var wire 32 : haddr [31:0] $end
$var wire 3 ; hsize [2:0] $end
$var wire 3 < hburst [2:0] $end
$var wire 1 = hresetn $end
$var wire 1 > hsel $end
$var wire 1 ? hwrite $end
$var wire 2 @ htrans [1:0] $end
$var reg 2 A hresp [1:0] $end
$var reg 1 B hready $end
$var reg 32 C hrdata [31:0] $end
$var reg 32 D state $end
$var reg 32 E next_state $end
$var integer 32 F len_count [31:0] $end
$var reg 1 G first $end
$var reg 32 H retaddr [31:0] $end
$var reg 32 I next_addr [31:0] $end
$var reg 8 J wboundary [7:0] $end
$scope function single_tr $end
$var reg 32 K single_tr [31:0] $end
$var reg 32 L addr [31:0] $end
$var reg 3 M hsize [2:0] $end
$upscope $end
$scope function unincr_wr $end
$var reg 32 N unincr_wr [31:0] $end
$var reg 32 O addr [31:0] $end
$var reg 3 P hsize [2:0] $end
$var reg 32 Q raddr [31:0] $end
$upscope $end
$scope function boundary $end
$var reg 8 R boundary [7:0] $end
$var reg 3 S hburst [2:0] $end
$var reg 3 T hsize [2:0] $end
$var reg 8 U temp [7:0] $end
$upscope $end
$scope function wrap_wr $end
$var reg 32 V wrap_wr [31:0] $end
$var reg 32 W addr [31:0] $end
$var reg 8 X boundary [7:0] $end
$var reg 3 Y hsize [2:0] $end
$var reg 32 Z addr1 [31:0] $end
$var reg 32 [ addr2 [31:0] $end
$var reg 32 \ addr3 [31:0] $end
$var reg 32 ] addr4 [31:0] $end
$upscope $end
$scope function incr_wr $end
$var reg 32 ^ incr_wr [31:0] $end
$var reg 32 _ addr [31:0] $end
$var reg 3 ` hsize [2:0] $end
$var reg 32 a raddr [31:0] $end
$upscope $end
$scope function single_tr_rd $end
$var reg 32 b single_tr_rd [31:0] $end
$var reg 32 c addr [31:0] $end
$var reg 3 d hsize [2:0] $end
$upscope $end
$scope function unincr_rd $end
$var reg 32 e unincr_rd [31:0] $end
$var reg 32 f addr [31:0] $end
$var reg 3 g hsize [2:0] $end
$var reg 32 h raddr [31:0] $end
$upscope $end
$scope function wrap_rd $end
$var reg 32 i wrap_rd [31:0] $end
$var reg 32 j addr [31:0] $end
$var reg 8 k boundary [7:0] $end
$var reg 3 l hsize [2:0] $end
$var reg 32 m addr1 [31:0] $end
$var reg 32 n addr2 [31:0] $end
$var reg 32 o addr3 [31:0] $end
$var reg 32 p addr4 [31:0] $end
$upscope $end
$scope function incr_rd $end
$var reg 32 q incr_rd [31:0] $end
$var reg 32 r addr [31:0] $end
$var reg 3 s hsize [2:0] $end
$var reg 32 t raddr [31:0] $end
$upscope $end
$upscope $end
$upscope $end
$enddefinitions $end
#0
$dumpvars
b101010100111110zzzzzzz00xx1z0z !
b101010100111000zzzzzzz00xx1z0z "
b101010100111100zzzzzzz00xx1z0z #
b101010101000000zzzzzzz00xx1z0z $
bx %
bx &
bx '
b101010100110110zzzzzzz00xx1z0z (
b101010100110110zzzzzzz10xz1z0z )
b101010100110110zzzzzzx00zx1z0z *
0+
b0 ,
b0 -
b0 .
bx /
00
01
02
b0 3
b0 4
05
bx 6
bx 7
08
b0 9
b0 :
b0 ;
bx <
0=
0>
0?
b0 @
b0 A
0B
bx C
b0 D
b1 E
b0 F
0G
bx H
bx I
bx J
b0 K
b0 L
b0 M
b0 N
b0 O
b0 P
b0 Q
b0 R
b0 S
bx T
b0 U
b0 V
b0 W
b0 X
bx Y
b0 Z
b0 [
b0 \
b0 ]
b0 ^
b0 _
b0 `
b0 a
b0 b
b0 c
b0 d
b0 e
b0 f
b0 g
b0 h
b0 i
b0 j
b0 k
bx l
b0 m
b0 n
b0 o
b0 p
b0 q
b0 r
b0 s
b0 t
$end
#5000
1+
18
b0 D
#10000
0+
08
#15000
1+
18
b0 D
#20000
0+
08
#25000
1+
18
b0 D
#30000
0+
08
#35000
1+
18
b0 D
#40000
0+
08
#45000
1+
18
b0 D
#50000
0+
08
#55000
1+
18
b0 D
#60000
0+
08
#65000
1+
18
b0 D
#70000
0+
08
#75000
1+
18
b0 D
#80000
0+
08
#85000
1+
18
b0 D
#90000
0+
08
#95000
1+
10
18
1=
b0 A
0B
b0 D
b1 E
b0 F
#100000
0+
08
#105000
1+
b0 ,
b101 -
b10 .
b110 /
10
11
02
b0 3
18
b101 :
b10 ;
b110 <
1>
0B
b1 D
b100 E
#110000
0+
08
#115000
1+
b101 7
18
b100 D
b11 E
b101 I
#120000
0+
08
#125000
1+
15
b1100000011000000110000001100 6
18
b0 A
1B
b1100000011000000110000001100 C
b11 D
b1 E
b1 F
b1001 H
b1000000 J
b1000000 R
b110 S
b10 T
b1000000 U
b1001 i
b101 j
b1000000 k
b10 l
b110 m
b111 n
b1000 o
b1001 p
#130000
0+
08
#135000
1+
b0 ,
b1 3
05
18
b1 @
0B
b1 D
b100 E
#140000
0+
08
#145000
1+
b1001 7
18
b100 D
b11 E
b1001 I
#150000
0+
08
#155000
1+
15
18
b0 A
1B
b1100000011000000110000001100 C
b11 D
b1 E
b10 F
b1101 H
b1000000 J
b1000000 R
b110 S
b10 T
b1000000 U
b1101 i
b1001 j
b1000000 k
b10 l
b1010 m
b1011 n
b1100 o
b1101 p
#160000
0+
08
#165000
1+
b0 ,
b1 3
05
18
0B
b1 D
b100 E
#170000
0+
08
#175000
1+
b1101 7
18
b100 D
b11 E
b1101 I
#180000
0+
08
#185000
1+
15
18
b0 A
1B
b1100000011000000110000001100 C
b11 D
b1 E
b11 F
b10001 H
b1000000 J
b1000000 R
b110 S
b10 T
b1000000 U
b10001 i
b1101 j
b1000000 k
b10 l
b1110 m
b1111 n
b10000 o
b10001 p
#190000
0+
08
#195000
1+
b0 ,
b1 3
05
18
0B
b1 D
b100 E
#200000
0+
08
#205000
1+
b10001 7
18
b100 D
b11 E
b10001 I
#210000
0+
08
#215000
1+
15
18
b0 A
1B
b1100000011000000110000001100 C
b11 D
b1 E
b100 F
b10101 H
b1000000 J
b1000000 R
b110 S
b10 T
b1000000 U
b10101 i
b10001 j
b1000000 k
b10 l
b10010 m
b10011 n
b10100 o
b10101 p
#220000
0+
08
#225000
1+
b0 ,
b1 3
05
18
0B
b1 D
b100 E
#230000
0+
08
#235000
1+
b10101 7
18
b100 D
b11 E
b10101 I
#240000
0+
08
#245000
1+
15
18
b0 A
1B
b1100000011000000110000001100 C
b11 D
b1 E
b101 F
b11001 H
b1000000 J
b1000000 R
b110 S
b10 T
b1000000 U
b11001 i
b10101 j
b1000000 k
b10 l
b10110 m
b10111 n
b11000 o
b11001 p
#250000
0+
08
#255000
1+
b0 ,
b1 3
05
18
0B
b1 D
b100 E
#260000
0+
08
#265000
1+
b11001 7
18
b100 D
b11 E
b11001 I
#270000
0+
08
#275000
1+
15
18
b0 A
1B
b1100000011000000110000001100 C
b11 D
b1 E
b110 F
b11101 H
b1000000 J
b1000000 R
b110 S
b10 T
b1000000 U
b11101 i
b11001 j
b1000000 k
b10 l
b11010 m
b11011 n
b11100 o
b11101 p
#280000
0+
08
#285000
1+
b0 ,
b1 3
05
18
0B
b1 D
b100 E
#290000
0+
08
#295000
1+
b11101 7
18
b100 D
b11 E
b11101 I
#300000
0+
08
#305000
1+
15
18
b0 A
1B
b1100000011000000110000001100 C
b11 D
b1 E
b111 F
b100001 H
b1000000 J
b1000000 R
b110 S
b10 T
b1000000 U
b100001 i
b11101 j
b1000000 k
b10 l
b11110 m
b11111 n
b100000 o
b100001 p
#310000
0+
08
#315000
1+
b0 ,
b1 3
05
18
0B
b1 D
b100 E
#320000
0+
08
#325000
1+
b100001 7
18
b100 D
b11 E
b100001 I
#330000
0+
08
#335000
1+
15
18
b0 A
1B
b1100000011000000110000001100 C
b11 D
b1 E
b1000 F
b100101 H
b1000000 J
b1000000 R
b110 S
b10 T
b1000000 U
b100101 i
b100001 j
b1000000 k
b10 l
b100010 m
b100011 n
b100100 o
b100101 p
#340000
0+
08
#345000
1+
b0 ,
b1 3
05
18
0B
b1 D
b100 E
#350000
0+
08
#355000
1+
b100101 7
18
b100 D
b11 E
b100101 I
#360000
0+
08
#365000
1+
15
18
b0 A
1B
b1100000011000000110000001100 C
b11 D
b1 E
b1001 F
b101001 H
b1000000 J
b1000000 R
b110 S
b10 T
b1000000 U
b101001 i
b100101 j
b1000000 k
b10 l
b100110 m
b100111 n
b101000 o
b101001 p
#370000
0+
08
#375000
1+
b0 ,
b1 3
05
18
0B
b1 D
b100 E
#380000
0+
08
#385000
1+
b101001 7
18
b100 D
b11 E
b101001 I
#390000
0+
08
#395000
1+
15
18
b0 A
1B
b1100000011000000110000001100 C
b11 D
b1 E
b1010 F
b101101 H
b1000000 J
b1000000 R
b110 S
b10 T
b1000000 U
b101101 i
b101001 j
b1000000 k
b10 l
b101010 m
b101011 n
b101100 o
b101101 p
#400000
0+
08
#405000
1+
b0 ,
b1 3
05
18
0B
b1 D
b100 E
#410000
0+
08
#415000
1+
b101101 7
18
b100 D
b11 E
b101101 I
#420000
0+
08
#425000
1+
15
18
b0 A
1B
b1100000011000000110000001100 C
b11 D
b1 E
b1011 F
b110001 H
b1000000 J
b1000000 R
b110 S
b10 T
b1000000 U
b110001 i
b101101 j
b1000000 k
b10 l
b101110 m
b101111 n
b110000 o
b110001 p
#430000
0+
08
#435000
1+
b0 ,
b1 3
05
18
0B
b1 D
b100 E
#440000
0+
08
#445000
1+
b110001 7
18
b100 D
b11 E
b110001 I
#450000
0+
08
#455000
1+
15
18
b0 A
1B
b1100000011000000110000001100 C
b11 D
b1 E
b1100 F
b110101 H
b1000000 J
b1000000 R
b110 S
b10 T
b1000000 U
b110101 i
b110001 j
b1000000 k
b10 l
b110010 m
b110011 n
b110100 o
b110101 p
#460000
0+
08
#465000
1+
b0 ,
b1 3
05
18
0B
b1 D
b100 E
#470000
0+
08
#475000
1+
b110101 7
18
b100 D
b11 E
b110101 I
#480000
0+
08
#485000
1+
15
18
b0 A
1B
b1100000011000000110000001100 C
b11 D
b1 E
b1101 F
b111001 H
b1000000 J
b1000000 R
b110 S
b10 T
b1000000 U
b111001 i
b110101 j
b1000000 k
b10 l
b110110 m
b110111 n
b111000 o
b111001 p
#490000
0+
08
#495000
1+
b0 ,
b1 3
05
18
0B
b1 D
b100 E
#500000
0+
08
#505000
1+
b111001 7
18
b100 D
b11 E
b111001 I
#510000
0+
08
#515000
1+
15
18
b0 A
1B
b1100000011000000110000001100 C
b11 D
b1 E
b1110 F
b111101 H
b1000000 J
b1000000 R
b110 S
b10 T
b1000000 U
b111101 i
b111001 j
b1000000 k
b10 l
b111010 m
b111011 n
b111100 o
b111101 p
#520000
0+
08
#525000
1+
b0 ,
b1 3
05
18
0B
b1 D
b100 E
#530000
0+
08
#535000
1+
b111101 7
18
b100 D
b11 E
b111101 I
#540000
0+
08
#545000
1+
15
18
b0 A
1B
b1100000011000000110000001100 C
b11 D
b1 E
b1111 F
b1 H
b1000000 J
b1000000 R
b110 S
b10 T
b1000000 U
b1 i
b111101 j
b1000000 k
b10 l
b111110 m
b111111 n
b0 o
b1 p
#550000
0+
08
#555000
1+
b0 ,
b1 3
05
18
0B
b1 D
b100 E
#560000
0+
08
#565000
1+
b1 7
18
b100 D
b11 E
b1 I
#570000
0+
08
#575000
1+
15
18
b0 A
1B
b1100000011000000110000001100 C
b11 D
b0 E
b0 F
b101 H
b1000000 J
b1000000 R
b110 S
b10 T
b1000000 U
b101 i
b1 j
b1000000 k
b10 l
b10 m
b11 n
b100 o
b101 p
#580000
0+
08
#585000
1+
05
18
b0 A
0B
b0 D
b1 E
b0 F
#590000
0+
08
#595000
1+
b100010 ,
b101 -
b10 .
b110 /
10
11
12
b0 3
18
b100010 9
1?
b0 @
0B
b1 D
b100 E
#600000
0+
08
#605000
1+
b101 7
18
b100 D
b10 E
b101 I
#610000
0+
08
#615000
1+
15
18
b0 A
1B
b10 D
b1 E
b1 F
b1001 H
b1000000 J
b1000000 R
b110 S
b10 T
b1000000 U
b1001 V
b101 W
b1000000 X
b10 Y
b110 Z
b111 [
b1000 \
b1001 ]
#620000
0+
08
#625000
1+
b10100 ,
b1 3
05
18
b10100 9
b1 @
0B
b1 D
b100 E
#630000
0+
08
#635000
1+
b1001 7
18
b100 D
b10 E
b1001 I
#640000
0+
08
#645000
1+
15
18
b0 A
1B
b10 D
b1 E
b10 F
b1101 H
b1000000 J
b1000000 R
b110 S
b10 T
b1000000 U
b1101 V
b1001 W
b1000000 X
b10 Y
b1010 Z
b1011 [
b1100 \
b1101 ]
#650000
0+
08
#655000
1+
b1011 ,
b1 3
05
18
b1011 9
0B
b1 D
b100 E
#660000
0+
08
#665000
1+
b1101 7
18
b100 D
b10 E
b1101 I
#670000
0+
08
#675000
1+
15
18
b0 A
1B
b10 D
b1 E
b11 F
b10001 H
b1000000 J
b1000000 R
b110 S
b10 T
b1000000 U
b10001 V
b1101 W
b1000000 X
b10 Y
b1110 Z
b1111 [
b10000 \
b10001 ]
#680000
0+
08
#685000
1+
b110010 ,
b1 3
05
18
b110010 9
0B
b1 D
b100 E
#690000
0+
08
#695000
1+
b10001 7
18
b100 D
b10 E
b10001 I
#700000
0+
08
#705000
1+
15
18
b0 A
1B
b10 D
b1 E
b100 F
b10101 H
b1000000 J
b1000000 R
b110 S
b10 T
b1000000 U
b10101 V
b10001 W
b1000000 X
b10 Y
b10010 Z
b10011 [
b10100 \
b10101 ]
#710000
0+
08
#715000
1+
b100011 ,
b1 3
05
18
b100011 9
0B
b1 D
b100 E
#720000
0+
08
#725000
1+
b10101 7
18
b100 D
b10 E
b10101 I
#730000
0+
08
#735000
1+
15
18
b0 A
1B
b10 D
b1 E
b101 F
b11001 H
b1000000 J
b1000000 R
b110 S
b10 T
b1000000 U
b11001 V
b10101 W
b1000000 X
b10 Y
b10110 Z
b10111 [
b11000 \
b11001 ]
#740000
0+
08
#745000
1+
b101010 ,
b1 3
05
18
b101010 9
0B
b1 D
b100 E
#750000
0+
08
#755000
1+
b11001 7
18
b100 D
b10 E
b11001 I
#760000
0+
08
#765000
1+
15
18
b0 A
1B
b10 D
b1 E
b110 F
b11101 H
b1000000 J
b1000000 R
b110 S
b10 T
b1000000 U
b11101 V
b11001 W
b1000000 X
b10 Y
b11010 Z
b11011 [
b11100 \
b11101 ]
#770000
0+
08
#775000
1+
b1001 ,
b1 3
05
18
b1001 9
0B
b1 D
b100 E
#780000
0+
08
#785000
1+
b11101 7
18
b100 D
b10 E
b11101 I
#790000
0+
08
#795000
1+
15
18
b0 A
1B
b10 D
b1 E
b111 F
b100001 H
b1000000 J
b1000000 R
b110 S
b10 T
b1000000 U
b100001 V
b11101 W
b1000000 X
b10 Y
b11110 Z
b11111 [
b100000 \
b100001 ]
#800000
0+
08
#805000
1+
b10110 ,
b1 3
05
18
b10110 9
0B
b1 D
b100 E
#810000
0+
08
#815000
1+
b100001 7
18
b100 D
b10 E
b100001 I
#820000
0+
08
#825000
1+
15
18
b0 A
1B
b10 D
b1 E
b1000 F
b100101 H
b1000000 J
b1000000 R
b110 S
b10 T
b1000000 U
b100101 V
b100001 W
b1000000 X
b10 Y
b100010 Z
b100011 [
b100100 \
b100101 ]
#830000
0+
08
#835000
1+
b1111 ,
b1 3
05
18
b1111 9
0B
b1 D
b100 E
#840000
0+
08
#845000
1+
b100101 7
18
b100 D
b10 E
b100101 I
#850000
0+
08
#855000
1+
15
18
b0 A
1B
b10 D
b1 E
b1001 F
b101001 H
b1000000 J
b1000000 R
b110 S
b10 T
b1000000 U
b101001 V
b100101 W
b1000000 X
b10 Y
b100110 Z
b100111 [
b101000 \
b101001 ]
#860000
0+
08
#865000
1+
b11000 ,
b1 3
05
18
b11000 9
0B
b1 D
b100 E
#870000
0+
08
#875000
1+
b101001 7
18
b100 D
b10 E
b101001 I
#880000
0+
08
#885000
1+
15
18
b0 A
1B
b10 D
b1 E
b1010 F
b101101 H
b1000000 J
b1000000 R
b110 S
b10 T
b1000000 U
b101101 V
b101001 W
b1000000 X
b10 Y
b101010 Z
b101011 [
b101100 \
b101101 ]
#890000
0+
08
#895000
1+
b11100 ,
b1 3
05
18
b11100 9
0B
b1 D
b100 E
#900000
0+
08
#905000
1+
b101101 7
18
b100 D
b10 E
b101101 I
#910000
0+
08
#915000
1+
15
18
b0 A
1B
b10 D
b1 E
b1011 F
b110001 H
b1000000 J
b1000000 R
b110 S
b10 T
b1000000 U
b110001 V
b101101 W
b1000000 X
b10 Y
b101110 Z
b101111 [
b110000 \
b110001 ]
#920000
0+
08
#925000
1+
b101 ,
b1 3
05
18
b101 9
0B
b1 D
b100 E
#930000
0+
08
#935000
1+
b110001 7
18
b100 D
b10 E
b110001 I
#940000
0+
08
#945000
1+
15
18
b0 A
1B
b10 D
b1 E
b1100 F
b110101 H
b1000000 J
b1000000 R
b110 S
b10 T
b1000000 U
b110101 V
b110001 W
b1000000 X
b10 Y
b110010 Z
b110011 [
b110100 \
b110101 ]
#950000
0+
08
#955000
1+
b10101 ,
b1 3
05
18
b10101 9
0B
b1 D
b100 E
#960000
0+
08
#965000
1+
b110101 7
18
b100 D
b10 E
b110101 I
#970000
0+
08
#975000
1+
15
18
b0 A
1B
b10 D
b1 E
b1101 F
b111001 H
b1000000 J
b1000000 R
b110 S
b10 T
b1000000 U
b111001 V
b110101 W
b1000000 X
b10 Y
b110110 Z
b110111 [
b111000 \
b111001 ]
#980000
0+
08
#985000
1+
b100110 ,
b1 3
05
18
b100110 9
0B
b1 D
b100 E
#990000
0+
08
#995000
1+
b111001 7
18
b100 D
b10 E
b111001 I
#1000000
0+
08
#1005000
1+
15
18
b0 A
1B
b10 D
b1 E
b1110 F
b111101 H
b1000000 J
b1000000 R
b110 S
b10 T
b1000000 U
b111101 V
b111001 W
b1000000 X
b10 Y
b111010 Z
b111011 [
b111100 \
b111101 ]
#1010000
0+
08
#1015000
1+
b11010 ,
b1 3
05
18
b11010 9
0B
b1 D
b100 E
#1020000
0+
08
#1025000
1+
b111101 7
18
b100 D
b10 E
b111101 I
#1030000
0+
08
#1035000
1+
15
18
b0 A
1B
b10 D
b1 E
b1111 F
b1 H
b1000000 J
b1000000 R
b110 S
b10 T
b1000000 U
b1 V
b111101 W
b1000000 X
b10 Y
b111110 Z
b111111 [
b0 \
b1 ]
#1040000
0+
08
#1045000
1+
b100011 ,
b1 3
05
18
b100011 9
0B
b1 D
b100 E
#1050000
0+
08
#1055000
1+
b1 7
18
b100 D
b10 E
b1 I
#1060000
0+
08
#1065000
1+
15
18
b0 A
1B
b10 D
b0 E
b0 F
b101 H
b1000000 J
b1000000 R
b110 S
b10 T
b1000000 U
b101 V
b1 W
b1000000 X
b10 Y
b10 Z
b11 [
b100 \
b101 ]
#1070000
0+
08
#1075000
1+
05
18
b0 A
0B
b0 D
b1 E
b0 F
#1080000
0+
08
#1085000
1+
b1101 ,
b101 -
b10 .
b110 /
10
11
12
b0 3
18
b1101 9
b0 @
0B
b1 D
b100 E
#1090000
0+
08
#1095000
1+
b101 7
18
b100 D
b10 E
b101 I
#1100000
0+
08
#1105000
1+
15
18
b0 A
1B
b10 D
b1 E
b1 F
b1001 H
b1000000 J
b1000000 R
b110 S
b10 T
b1000000 U
b1001 V
b101 W
b1000000 X
b10 Y
b110 Z
b111 [
b1000 \
b1001 ]
#1110000
0+
08
#1115000
1+
b101 ,
b1 3
05
18
b101 9
b1 @
0B
b1 D
b100 E
#1120000
0+
08
#1125000
1+
b1001 7
18
b100 D
b10 E
b1001 I
#1130000
0+
08
#1135000
1+
15
18
b0 A
1B
b10 D
b1 E
b10 F
b1101 H
b1000000 J
b1000000 R
b110 S
b10 T
b1000000 U
b1101 V
b1001 W
b1000000 X
b10 Y
b1010 Z
b1011 [
b1100 \
b1101 ]
#1140000
0+
08
#1145000
1+
b101011 ,
b1 3
05
18
b101011 9
0B
b1 D
b100 E
#1150000
0+
08
#1155000
1+
b1101 7
18
b100 D
b10 E
b1101 I
#1160000
0+
08
#1165000
1+
15
18
b0 A
1B
b10 D
b1 E
b11 F
b10001 H
b1000000 J
b1000000 R
b110 S
b10 T
b1000000 U
b10001 V
b1101 W
b1000000 X
b10 Y
b1110 Z
b1111 [
b10000 \
b10001 ]
#1170000
0+
08
#1175000
1+
b100001 ,
b1 3
05
18
b100001 9
0B
b1 D
b100 E
#1180000
0+
08
#1185000
1+
b10001 7
18
b100 D
b10 E
b10001 I
#1190000
0+
08
#1195000
1+
15
18
b0 A
1B
b10 D
b1 E
b100 F
b10101 H
b1000000 J
b1000000 R
b110 S
b10 T
b1000000 U
b10101 V
b10001 W
b1000000 X
b10 Y
b10010 Z
b10011 [
b10100 \
b10101 ]
#1200000
0+
08
#1205000
1+
b101111 ,
b1 3
05
18
b101111 9
0B
b1 D
b100 E
#1210000
0+
08
#1215000
1+
b10101 7
18
b100 D
b10 E
b10101 I
#1220000
0+
08
#1225000
1+
15
18
b0 A
1B
b10 D
b1 E
b101 F
b11001 H
b1000000 J
b1000000 R
b110 S
b10 T
b1000000 U
b11001 V
b10101 W
b1000000 X
b10 Y
b10110 Z
b10111 [
b11000 \
b11001 ]
#1230000
0+
08
#1235000
1+
b10010 ,
b1 3
05
18
b10010 9
0B
b1 D
b100 E
#1240000
0+
08
#1245000
1+
b11001 7
18
b100 D
b10 E
b11001 I
#1250000
0+
08
#1255000
1+
15
18
b0 A
1B
b10 D
b1 E
b110 F
b11101 H
b1000000 J
b1000000 R
b110 S
b10 T
b1000000 U
b11101 V
b11001 W
b1000000 X
b10 Y
b11010 Z
b11011 [
b11100 \
b11101 ]
#1260000
0+
08
#1265000
1+
b10101 ,
b1 3
05
18
b10101 9
0B
b1 D
b100 E
#1270000
0+
08
#1275000
1+
b11101 7
18
b100 D
b10 E
b11101 I
#1280000
0+
08
#1285000
1+
15
18
b0 A
1B
b10 D
b1 E
b111 F
b100001 H
b1000000 J
b1000000 R
b110 S
b10 T
b1000000 U
b100001 V
b11101 W
b1000000 X
b10 Y
b11110 Z
b11111 [
b100000 \
b100001 ]
#1290000
0+
08
#1295000
1+
b1011 ,
b1 3
05
18
b1011 9
0B
b1 D
b100 E
#1300000
0+
08
#1305000
1+
b100001 7
18
b100 D
b10 E
b100001 I
#1310000
0+
08
#1315000
1+
15
18
b0 A
1B
b10 D
b1 E
b1000 F
b100101 H
b1000000 J
b1000000 R
b110 S
b10 T
b1000000 U
b100101 V
b100001 W
b1000000 X
b10 Y
b100010 Z
b100011 [
b100100 \
b100101 ]
#1320000
0+
08
#1325000
1+
b11001 ,
b1 3
05
18
b11001 9
0B
b1 D
b100 E
#1330000
0+
08
#1335000
1+
b100101 7
18
b100 D
b10 E
b100101 I
#1340000
0+
08
#1345000
1+
15
18
b0 A
1B
b10 D
b1 E
b1001 F
b101001 H
b1000000 J
b1000000 R
b110 S
b10 T
b1000000 U
b101001 V
b100101 W
b1000000 X
b10 Y
b100110 Z
b100111 [
b101000 \
b101001 ]
#1350000
0+
08
#1355000
1+
b1101 ,
b1 3
05
18
b1101 9
0B
b1 D
b100 E
#1360000
0+
08
#1365000
1+
b101001 7
18
b100 D
b10 E
b101001 I
#1370000
0+
08
#1375000
1+
15
18
b0 A
1B
b10 D
b1 E
b1010 F
b101101 H
b1000000 J
b1000000 R
b110 S
b10 T
b1000000 U
b101101 V
b101001 W
b1000000 X
b10 Y
b101010 Z
b101011 [
b101100 \
b101101 ]
#1380000
0+
08
#1385000
1+
b110010 ,
b1 3
05
18
b110010 9
0B
b1 D
b100 E
#1390000
0+
08
#1395000
1+
b101101 7
18
b100 D
b10 E
b101101 I
#1400000
0+
08
#1405000
1+
15
18
b0 A
1B
b10 D
b1 E
b1011 F
b110001 H
b1000000 J
b1000000 R
b110 S
b10 T
b1000000 U
b110001 V
b101101 W
b1000000 X
b10 Y
b101110 Z
b101111 [
b110000 \
b110001 ]
#1410000
0+
08
#1415000
1+
b11001 ,
b1 3
05
18
b11001 9
0B
b1 D
b100 E
#1420000
0+
08
#1425000
1+
b110001 7
18
b100 D
b10 E
b110001 I
#1430000
0+
08
#1435000
1+
15
18
b0 A
1B
b10 D
b1 E
b1100 F
b110101 H
b1000000 J
b1000000 R
b110 S
b10 T
b1000000 U
b110101 V
b110001 W
b1000000 X
b10 Y
b110010 Z
b110011 [
b110100 \
b110101 ]
#1440000
0+
08
#1445000
1+
b100101 ,
b1 3
05
18
b100101 9
0B
b1 D
b100 E
#1450000
0+
08
#1455000
1+
b110101 7
18
b100 D
b10 E
b110101 I
#1460000
0+
08
#1465000
1+
15
18
b0 A
1B
b10 D
b1 E
b1101 F
b111001 H
b1000000 J
b1000000 R
b110 S
b10 T
b1000000 U
b111001 V
b110101 W
b1000000 X
b10 Y
b110110 Z
b110111 [
b111000 \
b111001 ]
#1470000
0+
08
#1475000
1+
b10100 ,
b1 3
05
18
b10100 9
0B
b1 D
b100 E
#1480000
0+
08
#1485000
1+
b111001 7
18
b100 D
b10 E
b111001 I
#1490000
0+
08
#1495000
1+
15
18
b0 A
1B
b10 D
b1 E
b1110 F
b111101 H
b1000000 J
b1000000 R
b110 S
b10 T
b1000000 U
b111101 V
b111001 W
b1000000 X
b10 Y
b111010 Z
b111011 [
b111100 \
b111101 ]
#1500000
0+
08
#1505000
1+
b100011 ,
b1 3
05
18
b100011 9
0B
b1 D
b100 E
#1510000
0+
08
#1515000
1+
b111101 7
18
b100 D
b10 E
b111101 I
#1520000
0+
08
#1525000
1+
15
18
b0 A
1B
b10 D
b1 E
b1111 F
b1 H
b1000000 J
b1000000 R
b110 S
b10 T
b1000000 U
b1 V
b111101 W
b1000000 X
b10 Y
b111110 Z
b111111 [
b0 \
b1 ]
#1530000
0+
08
#1535000
1+
b1111 ,
b1 3
05
18
b1111 9
0B
b1 D
b100 E
#1540000
0+
08
#1545000
1+
b1 7
18
b100 D
b10 E
b1 I
#1550000
0+
08
#1555000
1+
15
18
b0 A
1B
b10 D
b0 E
b0 F
b101 H
b1000000 J
b1000000 R
b110 S
b10 T
b1000000 U
b101 V
b1 W
b1000000 X
b10 Y
b10 Z
b11 [
b100 \
b101 ]
