Part_1/Section 7/interface/interface.sim/sim_1/behav/xsim/dump.vcd
$date
   Fri Jul 28 12:41:44 2023
$end
$version
  2021.2
$end
$timescale
  1ps
$end
$scope module tb11 $end
$var reg 32 ! mon $end
$var reg 32 " sco $end
$var reg 32 # mbx $end
$scope module vif $end
$var reg 1 $ clk $end
$var reg 4 % a [3:0] $end
$var reg 4 & b [3:0] $end
$var reg 8 ' mul [7:0] $end
$upscope $end
$scope module dut $end
$var wire 1 ( clk $end
$var wire 4 ) a [3:0] $end
$var wire 4 * b [3:0] $end
$var reg 8 + mul [7:0] $end
$upscope $end
$scope begin Block83_4 $end
$var reg 32 , i [31:0] $end
$upscope $end
$upscope $end
$enddefinitions $end
#0
$dumpvars
b11000101101100000zzzzzzzxzx0xz0z !
b11000101101100010zzzzzzzzzx1xz0z "
b11000101101100000zzzzzzzzzx1xz0z #
0$
bx %
bx &
bx '
0(
bx )
bx *
bx +
b0 ,
$end
#5000
1$
1(
bx +
#10000
0$
0(
#15000
1$
b111 %
b1101 &
1(
b111 )
b1101 *
bx +
b1 ,
#20000
0$
0(
#25000
1$
b1011011 '
1(
b1011011 +
#30000
0$
0(
#35000
1$
b1 %
b1111 &
1(
b1 )
b1111 *
b1011011 +
b10 ,
#40000
0$
0(
#45000
1$
b1111 '
1(
b1111 +
#50000
0$
0(
#55000
1$
b1001 %
b100 &
1(
b1001 )
b100 *
b1111 +
b11 ,
#60000
0$
0(
#65000
1$
b100100 '
1(
b100100 +
#70000
0$
0(
#75000
1$
b1011 %
b111 &
1(
b1011 )
b111 *
b100100 +
b100 ,
#80000
0$
0(
#85000
1$
b1001101 '
1(
b1001101 +
#90000
0$
0(
#95000
1$
b1000 %
b1010 &
1(
b1000 )
b1010 *
b1001101 +
b101 ,
#100000
0$
0(
#105000
1$
b1010000 '
1(
b1010000 +
#110000
0$
0(
#115000
1$
b110 %
b1 &
1(
b110 )
b1 *
b1010000 +
b110 ,
#120000
0$
0(
#125000
1$
b110 '
1(
b110 +
#130000
0$
0(
#135000
1$
b110 %
b1000 &
1(
b1000 *
b110 +
b111 ,
#140000
0$
0(
#145000
1$
b110000 '
1(
b110000 +
#150000
0$
0(
#155000
1$
b1110 %
b1100 &
1(
b1110 )
b1100 *
b110000 +
b1000 ,
#160000
0$
0(
#165000
1$
b10101000 '
1(
b10101000 +
#170000
0$
0(
#175000
1$
b10 %
b1011 &
1(
b10 )
b1011 *
b10101000 +
b1001 ,
#180000
0$
0(
#185000
1$
b10110 '
1(
b10110 +
#190000
0$
0(
#195000
1$
b1100 %
b110 &
1(
b1100 )
b110 *
b10110 +
b1010 ,
#200000
0$
0(
#205000
1$
b1001000 '
1(
b1001000 +
#210000
0$
0(
#215000
1$
b11 %
b1010 &
1(
b11 )
b1010 *
b1001000 +
b1011 ,
#220000
0$
0(
#225000
1$
b11110 '
1(
b11110 +
#230000
0$
0(
#235000
1$
b10 %
b1011 &
1(
b10 )
b1011 *
b11110 +
b1100 ,
#240000
0$
0(
#245000
1$
b10110 '
1(
b10110 +
#250000
0$
0(
#255000
1$
b1101 %
b101 &
1(
b1101 )
b101 *
b10110 +
b1101 ,
#260000
0$
0(
#265000
1$
b1000001 '
1(
b1000001 +
#270000
0$
0(
#275000
1$
b1 %
b1110 &
1(
b1 )
b1110 *
b1000001 +
b1110 ,
#280000
0$
0(
#285000
1$
b1110 '
1(
b1110 +
#290000
0$
0(
#295000
1$
b1110 %
b1001 &
1(
b1110 )
b1001 *
b1110 +
b1111 ,
