Part_2/Section_2/Section_2.sim/sim_1/behav/xsim/dump.vcd
$date
   Wed Aug 16 18:56:51 2023
$end
$version
  2022.1
$end
$timescale
  1ps
$end
$scope module tb $end
$var reg 32 ! env $end
$scope module vif $end
$var reg 1 " clk $end
$var reg 1 # rst $end
$var reg 1 $ din $end
$var reg 1 % dout $end
$upscope $end
$scope module dut $end
$scope module vif $end
$var reg 1 " clk $end
$var reg 1 # rst $end
$var reg 1 $ din $end
$var reg 1 % dout $end
$upscope $end
$upscope $end
$upscope $end
$enddefinitions $end
#0
$dumpvars
b100001101110000000000000111000 !
0"
1#
x$
x%
$end
#10000
1"
0%
#20000
0"
#30000
1"
0%
#40000
0"
#50000
1"
0%
#60000
0"
#70000
1"
0%
#80000
0"
#90000
1"
0#
0%
#100000
0"
#110000
1"
1$
x%
#120000
0"
#130000
1"
1%
#140000
0"
#150000
1"
0$
1%
#160000
0"
#170000
1"
0%
#180000
0"
#190000
1"
0$
0%
#200000
0"
#210000
1"
0%
#220000
0"
#230000
1"
0$
0%
#240000
0"
#250000
1"
0%
#260000
0"
#270000
1"
1$
0%
#280000
0"
#290000
1"
1%
#300000
0"
#310000
1"
1$
1%
#320000
0"
#330000
1"
1%
#340000
0"
#350000
1"
1$
1%
#360000
0"
#370000
1"
1%
#380000
0"
#390000
1"
0$
1%
#400000
0"
#410000
1"
0%
#420000
0"
#430000
1"
1$
0%
#440000
0"
#450000
1"
1%
#460000
0"
#470000
1"
1$
1%
#480000
0"
#490000
1"
1%
#500000
0"
#510000
1"
0$
1%
#520000
0"
#530000
1"
0%
#540000
0"
#550000
1"
0$
0%
#560000
0"
#570000
1"
0%
#580000
0"
#590000
1"
0$
0%
#600000
0"
#610000
1"
0%
#620000
0"
#630000
1"
1$
0%
#640000
0"
#650000
1"
1%
#660000
0"
#670000
1"
0$
1%
#680000
0"
#690000
1"
0%
#700000
0"
#710000
1"
0$
0%
#720000
0"
#730000
1"
0%
#740000
0"
#750000
1"
1$
0%
#760000
0"
#770000
1"
1%
#780000
0"
#790000
1"
0$
1%
#800000
0"
#810000
1"
0%
#820000
0"
#830000
1"
0$
0%
#840000
0"
#850000
1"
0%
#860000
0"
#870000
1"
1$
0%
#880000
0"
#890000
1"
1%
#900000
0"
#910000
1"
0$
1%
#920000
0"
#930000
1"
0%
#940000
0"
#950000
1"
1$
0%
#960000
0"
#970000
1"
1%
#980000
0"
#990000
1"
1$
1%
