Part_2/Section_1/Section_1.sim/sim_1/behav/xsim/dump.vcd
$date
   Wed Aug 16 16:44:11 2023
$end
$version
  2022.1
$end
$timescale
  1ps
$end
$scope module tb $end
$var reg 32 ! env $end
$scope module fif $end
$var reg 1 " clock $end
$var reg 1 # rd $end
$var reg 1 $ wr $end
$var reg 1 % full $end
$var reg 1 & empty $end
$var reg 8 ' data_in [7:0] $end
$var reg 8 ( data_out [7:0] $end
$var reg 1 ) rst $end
$upscope $end
$scope module dut $end
$var wire 1 * clock $end
$var wire 1 + rd $end
$var wire 1 , wr $end
$var wire 1 - full $end
$var wire 1 . empty $end
$var wire 8 / data_in [7:0] $end
$var reg 8 0 data_out [7:0] $end
$var wire 1 1 rst $end
$var reg 5 2 wr_ptr [4:0] $end
$var reg 5 3 rd_ptr [4:0] $end
$scope begin Block19_5 $end
$var reg 32 4 i [31:0] $end
$upscope $end
$upscope $end
$upscope $end
$enddefinitions $end
#0
$dumpvars
b100001101100100000000000111000 !
0"
0#
0$
x%
x&
b0 '
bx (
1)
0*
0+
0,
x-
x.
b0 /
bx 0
11
bx 2
bx 3
b0 4
$end
#10000
1"
0%
1&
b0 (
1*
0-
1.
b0 0
b0 2
b0 3
b100000 4
#20000
0"
0*
#30000
1"
1*
b0 0
b0 2
b0 3
b100000 4
#40000
0"
0*
#50000
1"
1*
b0 0
b0 2
b0 3
b100000 4
#60000
0"
0*
#70000
1"
1*
b0 0
b0 2
b0 3
b100000 4
#80000
0"
0*
#90000
1"
1#
0$
b11 '
0)
1*
1+
b11 /
b0 0
01
b0 2
b0 3
b100000 4
#100000
0"
0*
#110000
1"
1*
#120000
0"
0*
#130000
1"
0#
1$
b11 '
1*
0+
1,
#140000
0"
0*
#150000
1"
0&
1*
0-
0.
b1 2
#160000
0"
0*
#170000
1"
0#
1$
b100 '
1*
0-
0.
b100 /
b10 2
#180000
0"
0*
#190000
1"
1*
0-
0.
b11 2
#200000
0"
0*
#210000
1"
0#
1$
b100 '
1*
0-
0.
b100 2
#220000
0"
0*
#230000
1"
1*
0-
0.
b101 2
#240000
0"
0*
#250000
1"
0#
1$
b10 '
1*
0-
0.
b10 /
b110 2
#260000
0"
0*
#270000
1"
1*
0-
0.
b111 2
#280000
0"
0*
#290000
1"
0#
1$
b100 '
1*
0-
0.
b100 /
b1000 2
#300000
0"
0*
#310000
1"
1*
0-
0.
b1001 2
#320000
0"
0*
#330000
1"
1#
0$
b100 '
1*
1+
0,
0-
0.
b1010 2
#340000
0"
0*
#350000
1"
b11 (
1*
0-
0.
b11 0
b1 3
#360000
0"
0*
#370000
1"
1#
0$
b11 '
1*
0-
0.
b11 /
b11 0
b10 3
#380000
0"
0*
#390000
1"
b100 (
1*
0-
0.
b100 0
b11 3
#400000
0"
0*
#410000
1"
1#
0$
b10 '
1*
0-
0.
b10 /
b100 0
b100 3
#420000
0"
0*
#430000
1"
1*
0-
0.
b100 0
b101 3
#440000
0"
0*
#450000
1"
1#
0$
b100 '
1*
0-
0.
b100 /
b100 0
b110 3
#460000
0"
0*
#470000
1"
b10 (
1*
0-
0.
b10 0
b111 3
#480000
0"
0*
#490000
1"
1#
0$
b11 '
1*
0-
0.
b11 /
b10 0
b1000 3
#500000
0"
0*
#510000
1"
b100 (
1*
0-
0.
b100 0
b1001 3
#520000
0"
0*
#530000
1"
0#
1$
1&
b10 '
1*
0+
1,
0-
1.
b10 /
b100 0
b1010 3
#540000
0"
0*
#550000
1"
0&
1*
0-
0.
b1011 2
#560000
0"
0*
#570000
1"
1#
0$
b100 '
1*
1+
0,
0-
0.
b100 /
b1100 2
#580000
0"
0*
#590000
1"
b10 (
1*
0-
0.
b10 0
b1011 3
#600000
0"
0*
#610000
1"
1#
0$
1&
b11 '
1*
0-
1.
b11 /
b10 0
b1100 3
#620000
0"
0*
#630000
1"
1*
#640000
0"
0*
#650000
1"
1#
0$
b10 '
1*
b10 /
#660000
0"
0*
#670000
1"
1*
#680000
0"
0*
#690000
1"
0#
1$
b11 '
1*
0+
1,
b11 /
#700000
0"
0*
#710000
1"
0&
1*
0-
0.
b1101 2
#720000
0"
0*
#730000
1"
0#
1$
b11 '
1*
0-
0.
b1110 2
#740000
0"
0*
#750000
1"
1*
0-
0.
b1111 2
#760000
0"
0*
#770000
1"
1#
0$
b100 '
1*
1+
0,
0-
0.
b100 /
b10000 2
#780000
0"
0*
#790000
1"
b11 (
1*
0-
0.
b11 0
b1101 3
#800000
0"
0*
#810000
1"
0#
1$
b10 '
1*
0+
1,
0-
0.
b10 /
b11 0
b1110 3
#820000
0"
0*
#830000
1"
1*
0-
0.
b10001 2
#840000
0"
0*
#850000
1"
0#
1$
b11 '
1*
0-
0.
b11 /
b10010 2
#860000
0"
0*
#870000
1"
1*
0-
0.
b10011 2
#880000
0"
0*
#890000
1"
1*
0-
0.
b10100 2
