Part_2/Section_1/Section_1.sim/sim_1/behav/xsim/simulate.log
Time resolution is 1 ps
[DRV] : DUT Reset Done
[GEN] : WR : 0	 RD:1	 DATAWR : 3	 DATARD : 0	 FULL : 0	 EMPTY : 0 @ 90000
[DRV] : WR : 0	 RD:1	 DATAWR : 3	 DATARD : 0	 FULL : 0	 EMPTY : 0 @ 90000
[MON] : WR : 0	 RD:1	 DATAWR : 3	 DATARD : 0	 FULL : 0	 EMPTY : 1 @ 130000
[SCO] : WR : 0	 RD:1	 DATAWR : 3	 DATARD : 0	 FULL : 0	 EMPTY : 1 @ 130000
[SCO] : FIFO IS EMPTY
[GEN] : WR : 1	 RD:0	 DATAWR : 3	 DATARD : 0	 FULL : 0	 EMPTY : 0 @ 130000
[DRV] : WR : 1	 RD:0	 DATAWR : 3	 DATARD : 0	 FULL : 0	 EMPTY : 0 @ 130000
[MON] : WR : 1	 RD:0	 DATAWR : 3	 DATARD : 0	 FULL : 0	 EMPTY : 0 @ 170000
[SCO] : WR : 1	 RD:0	 DATAWR : 3	 DATARD : 0	 FULL : 0	 EMPTY : 0 @ 170000
[SCO] : DATA STORED IN QUEUE :3
[GEN] : WR : 1	 RD:0	 DATAWR : 4	 DATARD : 0	 FULL : 0	 EMPTY : 0 @ 170000
[DRV] : WR : 1	 RD:0	 DATAWR : 4	 DATARD : 0	 FULL : 0	 EMPTY : 0 @ 170000
[MON] : WR : 1	 RD:0	 DATAWR : 4	 DATARD : 0	 FULL : 0	 EMPTY : 0 @ 210000
[SCO] : WR : 1	 RD:0	 DATAWR : 4	 DATARD : 0	 FULL : 0	 EMPTY : 0 @ 210000
[SCO] : DATA STORED IN QUEUE :4
[GEN] : WR : 1	 RD:0	 DATAWR : 4	 DATARD : 0	 FULL : 0	 EMPTY : 0 @ 210000
[DRV] : WR : 1	 RD:0	 DATAWR : 4	 DATARD : 0	 FULL : 0	 EMPTY : 0 @ 210000
[MON] : WR : 1	 RD:0	 DATAWR : 4	 DATARD : 0	 FULL : 0	 EMPTY : 0 @ 250000
[SCO] : WR : 1	 RD:0	 DATAWR : 4	 DATARD : 0	 FULL : 0	 EMPTY : 0 @ 250000
[SCO] : DATA STORED IN QUEUE :4
[GEN] : WR : 1	 RD:0	 DATAWR : 2	 DATARD : 0	 FULL : 0	 EMPTY : 0 @ 250000
[DRV] : WR : 1	 RD:0	 DATAWR : 2	 DATARD : 0	 FULL : 0	 EMPTY : 0 @ 250000
[MON] : WR : 1	 RD:0	 DATAWR : 2	 DATARD : 0	 FULL : 0	 EMPTY : 0 @ 290000
[SCO] : WR : 1	 RD:0	 DATAWR : 2	 DATARD : 0	 FULL : 0	 EMPTY : 0 @ 290000
[SCO] : DATA STORED IN QUEUE :2
[GEN] : WR : 1	 RD:0	 DATAWR : 4	 DATARD : 0	 FULL : 0	 EMPTY : 0 @ 290000
[DRV] : WR : 1	 RD:0	 DATAWR : 4	 DATARD : 0	 FULL : 0	 EMPTY : 0 @ 290000
[MON] : WR : 1	 RD:0	 DATAWR : 4	 DATARD : 0	 FULL : 0	 EMPTY : 0 @ 330000
[SCO] : WR : 1	 RD:0	 DATAWR : 4	 DATARD : 0	 FULL : 0	 EMPTY : 0 @ 330000
[SCO] : DATA STORED IN QUEUE :4
[GEN] : WR : 0	 RD:1	 DATAWR : 4	 DATARD : 0	 FULL : 0	 EMPTY : 0 @ 330000
[DRV] : WR : 0	 RD:1	 DATAWR : 4	 DATARD : 0	 FULL : 0	 EMPTY : 0 @ 330000
[MON] : WR : 0	 RD:1	 DATAWR : 4	 DATARD : 3	 FULL : 0	 EMPTY : 0 @ 370000
[SCO] : WR : 0	 RD:1	 DATAWR : 4	 DATARD : 3	 FULL : 0	 EMPTY : 0 @ 370000
[SCO] : DATA MATCH
[GEN] : WR : 0	 RD:1	 DATAWR : 3	 DATARD : 0	 FULL : 0	 EMPTY : 0 @ 370000
[DRV] : WR : 0	 RD:1	 DATAWR : 3	 DATARD : 0	 FULL : 0	 EMPTY : 0 @ 370000
[MON] : WR : 0	 RD:1	 DATAWR : 3	 DATARD : 4	 FULL : 0	 EMPTY : 0 @ 410000
[SCO] : WR : 0	 RD:1	 DATAWR : 3	 DATARD : 4	 FULL : 0	 EMPTY : 0 @ 410000
[SCO] : DATA MATCH
[GEN] : WR : 0	 RD:1	 DATAWR : 2	 DATARD : 0	 FULL : 0	 EMPTY : 0 @ 410000
[DRV] : WR : 0	 RD:1	 DATAWR : 2	 DATARD : 0	 FULL : 0	 EMPTY : 0 @ 410000
[MON] : WR : 0	 RD:1	 DATAWR : 2	 DATARD : 4	 FULL : 0	 EMPTY : 0 @ 450000
[SCO] : WR : 0	 RD:1	 DATAWR : 2	 DATARD : 4	 FULL : 0	 EMPTY : 0 @ 450000
[SCO] : DATA MATCH
[GEN] : WR : 0	 RD:1	 DATAWR : 4	 DATARD : 0	 FULL : 0	 EMPTY : 0 @ 450000
[DRV] : WR : 0	 RD:1	 DATAWR : 4	 DATARD : 0	 FULL : 0	 EMPTY : 0 @ 450000
[MON] : WR : 0	 RD:1	 DATAWR : 4	 DATARD : 2	 FULL : 0	 EMPTY : 0 @ 490000
[SCO] : WR : 0	 RD:1	 DATAWR : 4	 DATARD : 2	 FULL : 0	 EMPTY : 0 @ 490000
[SCO] : DATA MATCH
[GEN] : WR : 0	 RD:1	 DATAWR : 3	 DATARD : 0	 FULL : 0	 EMPTY : 0 @ 490000
[DRV] : WR : 0	 RD:1	 DATAWR : 3	 DATARD : 0	 FULL : 0	 EMPTY : 0 @ 490000
[MON] : WR : 0	 RD:1	 DATAWR : 3	 DATARD : 4	 FULL : 0	 EMPTY : 0 @ 530000
[SCO] : WR : 0	 RD:1	 DATAWR : 3	 DATARD : 4	 FULL : 0	 EMPTY : 0 @ 530000
[SCO] : DATA MATCH
[GEN] : WR : 1	 RD:0	 DATAWR : 2	 DATARD : 0	 FULL : 0	 EMPTY : 0 @ 530000
[DRV] : WR : 1	 RD:0	 DATAWR : 2	 DATARD : 0	 FULL : 0	 EMPTY : 0 @ 530000
[MON] : WR : 1	 RD:0	 DATAWR : 2	 DATARD : 4	 FULL : 0	 EMPTY : 0 @ 570000
[SCO] : WR : 1	 RD:0	 DATAWR : 2	 DATARD : 4	 FULL : 0	 EMPTY : 0 @ 570000
[SCO] : DATA STORED IN QUEUE :2
[GEN] : WR : 0	 RD:1	 DATAWR : 4	 DATARD : 0	 FULL : 0	 EMPTY : 0 @ 570000
[DRV] : WR : 0	 RD:1	 DATAWR : 4	 DATARD : 0	 FULL : 0	 EMPTY : 0 @ 570000
[MON] : WR : 0	 RD:1	 DATAWR : 4	 DATARD : 2	 FULL : 0	 EMPTY : 0 @ 610000
[SCO] : WR : 0	 RD:1	 DATAWR : 4	 DATARD : 2	 FULL : 0	 EMPTY : 0 @ 610000
[SCO] : DATA MATCH
[GEN] : WR : 0	 RD:1	 DATAWR : 3	 DATARD : 0	 FULL : 0	 EMPTY : 0 @ 610000
[DRV] : WR : 0	 RD:1	 DATAWR : 3	 DATARD : 0	 FULL : 0	 EMPTY : 0 @ 610000
[MON] : WR : 0	 RD:1	 DATAWR : 3	 DATARD : 2	 FULL : 0	 EMPTY : 1 @ 650000
[SCO] : WR : 0	 RD:1	 DATAWR : 3	 DATARD : 2	 FULL : 0	 EMPTY : 1 @ 650000
[SCO] : FIFO IS EMPTY
[GEN] : WR : 0	 RD:1	 DATAWR : 2	 DATARD : 0	 FULL : 0	 EMPTY : 0 @ 650000
[DRV] : WR : 0	 RD:1	 DATAWR : 2	 DATARD : 0	 FULL : 0	 EMPTY : 0 @ 650000
[MON] : WR : 0	 RD:1	 DATAWR : 2	 DATARD : 2	 FULL : 0	 EMPTY : 1 @ 690000
[SCO] : WR : 0	 RD:1	 DATAWR : 2	 DATARD : 2	 FULL : 0	 EMPTY : 1 @ 690000
[SCO] : FIFO IS EMPTY
[GEN] : WR : 1	 RD:0	 DATAWR : 3	 DATARD : 0	 FULL : 0	 EMPTY : 0 @ 690000
[DRV] : WR : 1	 RD:0	 DATAWR : 3	 DATARD : 0	 FULL : 0	 EMPTY : 0 @ 690000
[MON] : WR : 1	 RD:0	 DATAWR : 3	 DATARD : 2	 FULL : 0	 EMPTY : 0 @ 730000
[SCO] : WR : 1	 RD:0	 DATAWR : 3	 DATARD : 2	 FULL : 0	 EMPTY : 0 @ 730000
[SCO] : DATA STORED IN QUEUE :3
[GEN] : WR : 1	 RD:0	 DATAWR : 3	 DATARD : 0	 FULL : 0	 EMPTY : 0 @ 730000
[DRV] : WR : 1	 RD:0	 DATAWR : 3	 DATARD : 0	 FULL : 0	 EMPTY : 0 @ 730000
[MON] : WR : 1	 RD:0	 DATAWR : 3	 DATARD : 2	 FULL : 0	 EMPTY : 0 @ 770000
[SCO] : WR : 1	 RD:0	 DATAWR : 3	 DATARD : 2	 FULL : 0	 EMPTY : 0 @ 770000
[SCO] : DATA STORED IN QUEUE :3
[GEN] : WR : 0	 RD:1	 DATAWR : 4	 DATARD : 0	 FULL : 0	 EMPTY : 0 @ 770000
[DRV] : WR : 0	 RD:1	 DATAWR : 4	 DATARD : 0	 FULL : 0	 EMPTY : 0 @ 770000
[MON] : WR : 0	 RD:1	 DATAWR : 4	 DATARD : 3	 FULL : 0	 EMPTY : 0 @ 810000
[SCO] : WR : 0	 RD:1	 DATAWR : 4	 DATARD : 3	 FULL : 0	 EMPTY : 0 @ 810000
[SCO] : DATA MATCH
[GEN] : WR : 1	 RD:0	 DATAWR : 2	 DATARD : 0	 FULL : 0	 EMPTY : 0 @ 810000
[DRV] : WR : 1	 RD:0	 DATAWR : 2	 DATARD : 0	 FULL : 0	 EMPTY : 0 @ 810000
[MON] : WR : 1	 RD:0	 DATAWR : 2	 DATARD : 3	 FULL : 0	 EMPTY : 0 @ 850000
[SCO] : WR : 1	 RD:0	 DATAWR : 2	 DATARD : 3	 FULL : 0	 EMPTY : 0 @ 850000
[SCO] : DATA STORED IN QUEUE :2
[GEN] : WR : 1	 RD:0	 DATAWR : 3	 DATARD : 0	 FULL : 0	 EMPTY : 0 @ 850000
[DRV] : WR : 1	 RD:0	 DATAWR : 3	 DATARD : 0	 FULL : 0	 EMPTY : 0 @ 850000
[MON] : WR : 1	 RD:0	 DATAWR : 3	 DATARD : 3	 FULL : 0	 EMPTY : 0 @ 890000
[SCO] : WR : 1	 RD:0	 DATAWR : 3	 DATARD : 3	 FULL : 0	 EMPTY : 0 @ 890000
[SCO] : DATA STORED IN QUEUE :3
$finish called at time : 890 ns : File "D:/Vivado/Verification/Part_2/Section_1/Section_1.srcs/sim_1/new/tb.sv" Line 198
