Part_2/Section_9/Section_9.sim/sim_1/behav/xsim/dump.vcd
$date
   Fri Sep 15 19:24:24 2023
$end
$version
  2021.2
$end
$timescale
  1ps
$end
$scope module tb $end
$var reg 32 ! gen $end
$var reg 32 " drv $end
$var reg 32 # mon $end
$var reg 32 $ sco $end
$var event 32 % drvnext $end
$var event 32 & sconext $end
$var event 32 ' done $end
$var reg 32 ( mbxgd $end
$var reg 32 ) mbxms $end
$scope module vif $end
$var reg 1 * clk $end
$var reg 1 + we $end
$var reg 1 , strb $end
$var reg 1 - rst $end
$var reg 8 . addr [7:0] $end
$var reg 8 / wdata [7:0] $end
$var reg 8 0 rdata [7:0] $end
$var reg 1 1 ack $end
$upscope $end
$scope module dut $end
$var wire 1 2 clk $end
$var wire 1 3 we $end
$var wire 1 4 strb $end
$var wire 1 5 rst $end
$var wire 8 6 addr [7:0] $end
$var wire 8 7 wdata [7:0] $end
$var reg 8 8 rdata [7:0] $end
$var reg 1 9 ack $end
$var reg 8 : temp [7:0] $end
$var reg 2 ; state $end
$var reg 2 < next_state $end
$scope begin Block50_3 $end
$var reg 32 = i [31:0] $end
$upscope $end
$upscope $end
$upscope $end
$enddefinitions $end
#0
$dumpvars
b1100110000111000zzzzzzzzz1x10zz !
b1100110000111100zzzzzzzzz1x10zz "
b1100110000110110zzzzzzxzz0x10zz #
b1100110000111110zzzzzzzzz1x10zz $
bx %
bx &
bx '
b1100110000110110zzzzzzzzz1x10zz (
b1100110000110110zzzzzzzxz1z10zz )
0*
0+
0,
1-
b0 .
b0 /
b0 0
01
02
03
04
15
b0 6
b0 7
b0 8
09
bx :
b0 ;
b1 <
b0 =
$end
#5000
1*
12
b0 ;
#10000
0*
02
#15000
1*
12
b0 ;
#20000
0*
02
#25000
1*
12
b0 ;
#30000
0*
02
#35000
1*
12
b0 ;
#40000
0*
02
#45000
1*
12
b0 ;
#50000
0*
02
#55000
1*
12
b0 ;
#60000
0*
02
#65000
1*
12
b0 ;
#70000
0*
02
#75000
1*
12
b0 ;
#80000
0*
02
#85000
1*
12
b0 ;
#90000
0*
02
#95000
1*
0-
12
05
b0 ;
#100000
0*
02
#105000
1*
12
b1 ;
b1 <
#110000
0*
02
#115000
1*
12
b1 ;
#120000
0*
02
#125000
1*
12
b1 ;
#130000
0*
02
#135000
1*
12
b1 ;
#140000
0*
02
#145000
1*
12
b1 ;
#150000
0*
02
#155000
1*
1+
1,
0-
b101 .
b100 /
12
13
14
b101 6
b100 7
b1 ;
b10 <
#160000
0*
02
#165000
1*
11
12
19
b10 ;
b0 <
#170000
0*
02
#175000
1*
01
12
b0 8
09
b0 ;
b1 <
#180000
0*
02
#185000
1*
12
b1 ;
b10 <
#190000
0*
02
#195000
1*
11
12
19
b10 ;
b0 <
#200000
0*
02
#205000
1*
01
12
b0 8
09
b0 ;
b1 <
#210000
0*
02
#215000
1*
12
b1 ;
b10 <
#220000
0*
02
#225000
1*
11
12
19
b10 ;
b0 <
#230000
0*
02
#235000
1*
01
12
b0 8
09
b0 ;
b1 <
#240000
0*
02
#245000
1*
0+
1,
0-
b101 .
12
03
b10001 :
b1 ;
b11 <
#250000
0*
02
#255000
1*
b10001 0
11
12
b10001 8
19
b11 ;
b0 <
#260000
0*
02
#265000
1*
b0 0
01
12
b0 8
09
b0 ;
b1 <
#270000
0*
02
#275000
1*
12
b10001 :
b1 ;
b11 <
#280000
0*
02
#285000
1*
b10001 0
11
12
b10001 8
19
b11 ;
b0 <
#290000
0*
02
#295000
1*
b0 0
01
12
b0 8
09
b0 ;
b1 <
#300000
0*
02
#305000
1*
12
b10001 :
b1 ;
b11 <
#310000
0*
02
#315000
1*
b10001 0
11
12
b10001 8
19
b11 ;
b0 <
#320000
0*
02
#325000
1*
b0 0
01
12
b0 8
09
b0 ;
b1 <
#330000
0*
02
#335000
1*
1+
1,
0-
b101 .
b110 /
12
13
b110 7
b1 ;
b10 <
#340000
0*
02
#345000
1*
11
12
19
b10 ;
b0 <
#350000
0*
02
#355000
1*
01
12
b0 8
09
b0 ;
b1 <
#360000
0*
02
#365000
1*
12
b1 ;
b10 <
#370000
0*
02
#375000
1*
11
12
19
b10 ;
b0 <
#380000
0*
02
#385000
1*
01
12
b0 8
09
b0 ;
b1 <
#390000
0*
02
#395000
1*
12
b1 ;
b10 <
#400000
0*
02
#405000
1*
11
12
19
b10 ;
b0 <
#410000
0*
02
#415000
1*
01
12
b0 8
09
b0 ;
b1 <
#420000
0*
02
#425000
1*
0+
1,
0-
b101 .
12
03
b10001 :
b1 ;
b11 <
#430000
0*
02
#435000
1*
b10001 0
11
12
b10001 8
19
b11 ;
b0 <
#440000
0*
02
#445000
1*
b0 0
01
12
b0 8
09
b0 ;
b1 <
#450000
0*
02
#455000
1*
12
b10001 :
b1 ;
b11 <
#460000
0*
02
#465000
1*
b10001 0
11
12
b10001 8
19
b11 ;
b0 <
#470000
0*
02
#475000
1*
b0 0
01
12
b0 8
09
b0 ;
b1 <
#480000
0*
02
#485000
1*
12
b10001 :
b1 ;
b11 <
#490000
0*
02
#495000
1*
b10001 0
11
12
b10001 8
19
b11 ;
b0 <
#500000
0*
02
#505000
1*
b0 0
01
12
b0 8
09
b0 ;
b1 <
#510000
0*
02
#515000
1*
1+
0,
0-
b101 .
b1 /
12
13
04
b1 7
b1 ;
b1 <
#520000
0*
02
#525000
1*
12
b1 ;
#530000
0*
02
#535000
1*
12
b1 ;
#540000
0*
02
#545000
1*
12
b1 ;
#550000
0*
02
#555000
1*
12
b1 ;
#560000
0*
02
#565000
1*
12
b1 ;
#570000
0*
02
#575000
1*
12
b1 ;
#580000
0*
02
#585000
1*
1+
1,
0-
b101 .
b11 /
12
14
b11 7
b1 ;
b10 <
#590000
0*
02
#595000
1*
11
12
19
b10 ;
b0 <
#600000
0*
02
#605000
1*
01
12
b0 8
09
b0 ;
b1 <
#610000
0*
02
#615000
1*
12
b1 ;
b10 <
#620000
0*
02
#625000
1*
11
12
19
b10 ;
b0 <
#630000
0*
02
#635000
1*
01
12
b0 8
09
b0 ;
b1 <
#640000
0*
02
#645000
1*
12
b1 ;
b10 <
#650000
0*
02
#655000
1*
11
12
19
b10 ;
b0 <
#660000
0*
02
#665000
1*
01
12
b0 8
09
b0 ;
b1 <
#670000
0*
02
#675000
1*
0+
1,
0-
b101 .
12
03
b10001 :
b1 ;
b11 <
#680000
0*
02
#685000
1*
b10001 0
11
12
b10001 8
19
b11 ;
b0 <
#690000
0*
02
#695000
1*
b0 0
01
12
b0 8
09
b0 ;
b1 <
#700000
0*
02
#705000
1*
12
b10001 :
b1 ;
b11 <
#710000
0*
02
#715000
1*
b10001 0
11
12
b10001 8
19
b11 ;
b0 <
#720000
0*
02
#725000
1*
b0 0
01
12
b0 8
09
b0 ;
b1 <
#730000
0*
02
#735000
1*
12
b10001 :
b1 ;
b11 <
#740000
0*
02
#745000
1*
b10001 0
11
12
b10001 8
19
b11 ;
b0 <
#750000
0*
02
#755000
1*
b0 0
01
12
b0 8
09
b0 ;
b1 <
#760000
0*
02
#765000
1*
1+
1,
0-
b101 .
b11 /
12
13
b1 ;
b10 <
#770000
0*
02
#775000
1*
11
12
19
b10 ;
b0 <
#780000
0*
02
#785000
1*
01
12
b0 8
09
b0 ;
b1 <
#790000
0*
02
#795000
1*
12
b1 ;
b10 <
#800000
0*
02
#805000
1*
11
12
19
b10 ;
b0 <
#810000
0*
02
#815000
1*
01
12
b0 8
09
b0 ;
b1 <
#820000
0*
02
#825000
1*
12
b1 ;
b10 <
#830000
0*
02
#835000
1*
11
12
19
b10 ;
b0 <
#840000
0*
02
#845000
1*
01
12
b0 8
09
b0 ;
b1 <
#850000
0*
02
#855000
1*
0+
1,
0-
b101 .
12
03
b10001 :
b1 ;
b11 <
#860000
0*
02
#865000
1*
b10001 0
11
12
b10001 8
19
b11 ;
b0 <
#870000
0*
02
#875000
1*
b0 0
01
12
b0 8
09
b0 ;
b1 <
#880000
0*
02
#885000
1*
12
b10001 :
b1 ;
b11 <
#890000
0*
02
#895000
1*
b10001 0
11
12
b10001 8
19
b11 ;
b0 <
#900000
0*
02
#905000
1*
b0 0
01
12
b0 8
09
b0 ;
b1 <
#910000
0*
02
#915000
1*
12
b10001 :
b1 ;
b11 <
#920000
0*
02
#925000
1*
b10001 0
11
12
b10001 8
19
b11 ;
b0 <
#930000
0*
02
#935000
1*
b0 0
01
12
b0 8
09
b0 ;
b1 <
#940000
0*
02
#945000
1*
0+
0,
0-
b101 .
12
04
b1 ;
b1 <
#950000
0*
02
#955000
1*
12
b1 ;
#960000
0*
02
#965000
1*
12
b1 ;
#970000
0*
02
#975000
1*
12
b1 ;
#980000
0*
02
#985000
1*
12
b1 ;
#990000
0*
02
#995000
1*
12
b1 ;
